kintex_5cam_cln_fifo_wrk/kintex_5cam/.Xil/Vivado-11400-DESKTOP-401LVPF/hw_ila_data_1/zip_work/waveform.vcd
$date
        2023-Dec-04 16:52:54
$end
$version
        Vivado v2023.1 (64-bit)
$end
$timescale
        1ps
$end
$scope module dut $end
$var reg 8 " cam0_data [7:0] $end
$var reg 40 * dbg_sig [39:0] $end
$var reg 16 R user_probe_0 [15:0] $end
$var reg 8 b user_probe_1 [7:0] $end
$var reg 1 j user_probe_7 $end
$var reg 1 k hsync_cam0 $end
$var reg 8 l user_probe_2 [15:8] $end
$var reg 1 t vsync_cam0 $end
$var reg 1 u user_probe_11 $end
$var reg 1 v vsync_cam1 $end
$var reg 1 w user_probe_12 $end
$var reg 1 x user_probe_13 $end
$var reg 1 y vsync_cam2 $end
$var reg 1 z user_probe_14_1 $end
$var reg 1 { user_probe_15 $end
$var reg 1 | user_probe_15_1 $end
$var reg 1 } vsync_cam3 $end
$var reg 1 ~ vsync_cam4 $end
$var reg 1 !" user_probe_27 $end
$var reg 1 "" user_probe_27_1 $end
$var reg 1 #" _TRIGGER $end
$var reg 1 $" _WINDOW $end
$var reg 1 %" _GAP $end
$upscope $end
$enddefinitions $end
#0
$dumpvars
b1010010 "
b1101010010 *
b1101010010 R
b1010010 b
0j
1k
b11 l
1t
0u
0v
0w
0x
0y
0z
0{
0|
0}
0~
0!"
0""
0#"
1$"
0%"
$end
#4
b1010001 "
b1101010001 *
b1101010001 R
b1010001 b
#6
b1010011 "
b1101010011 *
b1101010011 R
b1010011 b
#8
b1010001 "
b1101010001 *
b1101010001 R
b1010001 b
#10
b1010010 "
b1101010010 *
b1101010010 R
b1010010 b
#12
b1010001 "
b1101010001 *
b1101010001 R
b1010001 b
#16
b1010011 "
b1101010011 *
b1101010011 R
b1010011 b
#18
b1010010 "
b1101010010 *
b1101010010 R
b1010010 b
#21
b1010001 "
b1101010001 *
b1101010001 R
b1010001 b
#25
b1010010 "
b1101010010 *
b1101010010 R
b1010010 b
#27
b1010001 "
b1101010001 *
b1101010001 R
b1010001 b
#29
b1010011 "
b1101010011 *
b1101010011 R
b1010011 b
#33
b1010010 "
b1101010010 *
b1101010010 R
b1010010 b
#35
b1010011 "
b1101010011 *
b1101010011 R
b1010011 b
#37
b1010010 "
b1101010010 *
b1101010010 R
b1010010 b
#39
b1010001 "
b1101010001 *
b1101010001 R
b1010001 b
#40
b1010011 "
b1101010011 *
b1101010011 R
b1010011 b
#42
b1010001 "
b1101010001 *
b1101010001 R
b1010001 b
#44
b1010010 "
b1101010010 *
b1101010010 R
b1010010 b
#48
b1010001 "
b1101010001 *
b1101010001 R
b1010001 b
#50
b1010100 "
b1101010100 *
b1101010100 R
b1010100 b
#52
b1010011 "
b1101010011 *
b1101010011 R
b1010011 b
#58
b1010100 "
b1101010100 *
b1101010100 R
b1010100 b
#61
b1010111 "
b1101010111 *
b1101010111 R
b1010111 b
#63
b1010011 "
b1101010011 *
b1101010011 R
b1010011 b
#65
b1010100 "
b1101010100 *
b1101010100 R
b1010100 b
#67
b1010011 "
b1101010011 *
b1101010011 R
b1010011 b
#69
b1010100 "
b1101010100 *
b1101010100 R
b1010100 b
#71
b1011000 "
b1101011000 *
b1101011000 R
b1011000 b
#73
b1010101 "
b1101010101 *
b1101010101 R
b1010101 b
#77
b1010100 "
b1101010100 *
b1101010100 R
b1010100 b
#81
b1010011 "
b1101010011 *
b1101010011 R
b1010011 b
#88
b1001101 "
b1101001101 *
b1101001101 R
b1001101 b
#90
b1010011 "
b1101010011 *
b1101010011 R
b1010011 b
#92
b1011000 "
b1101011000 *
b1101011000 R
b1011000 b
#94
b1010011 "
b1101010011 *
b1101010011 R
b1010011 b
#96
b1011000 "
b1101011000 *
b1101011000 R
b1011000 b
#98
b1010101 "
b1101010101 *
b1101010101 R
b1010101 b
#100
b1010100 "
b1101010100 *
b1101010100 R
b1010100 b
#105
b1010111 "
b1101010111 *
b1101010111 R
b1010111 b
#107
b1011000 "
b1101011000 *
b1101011000 R
b1011000 b
#109
b1010101 "
b1101010101 *
b1101010101 R
b1010101 b
#111
b1011000 "
b1101011000 *
b1101011000 R
b1011000 b
#113
b1010101 "
b1101010101 *
b1101010101 R
b1010101 b
#115
b1011010 "
b1101011010 *
b1101011010 R
b1011010 b
#117
b1011000 "
b1101011000 *
b1101011000 R
b1011000 b
#123
b1010101 "
b1101010101 *
b1101010101 R
b1010101 b
#124
b1011111 "
b1101011111 *
b1101011111 R
b1011111 b
#125
b1011010 "
b1101011010 *
b1101011010 R
b1011010 b
#126
b1010111 "
b1101010111 *
b1101010111 R
b1010111 b
#128
b1011011 "
b1101011011 *
b1101011011 R
b1011011 b
#130
b1010111 "
b1101010111 *
b1101010111 R
b1010111 b
#132
b1011000 "
b1101011000 *
b1101011000 R
b1011000 b
#134
b1011011 "
b1101011011 *
b1101011011 R
b1011011 b
#136
b1010111 "
b1101010111 *
b1101010111 R
b1010111 b
#138
b1011011 "
b1101011011 *
b1101011011 R
b1011011 b
#142
b1011110 "
b1101011110 *
b1101011110 R
b1011110 b
#144
b1011101 "
b1101011101 *
b1101011101 R
b1011101 b
#145
b1011111 "
b1101011111 *
b1101011111 R
b1011111 b
#147
b1011101 "
b1101011101 *
b1101011101 R
b1011101 b
#151
b1011111 "
b1101011111 *
b1101011111 R
b1011111 b
#153
b1011101 "
b1101011101 *
b1101011101 R
b1011101 b
#159
b1011111 "
b1101011111 *
b1101011111 R
b1011111 b
#161
b1011101 "
b1101011101 *
b1101011101 R
b1011101 b
#163
b1011111 "
b1101011111 *
b1101011111 R
b1011111 b
#165
b1011010 "
b1101011010 *
b1101011010 R
b1011010 b
#167
b1011101 "
b1101011101 *
b1101011101 R
b1011101 b
#168
b1011010 "
b1101011010 *
b1101011010 R
b1011010 b
#170
b1011111 "
b1101011111 *
b1101011111 R
b1011111 b
#172
b1100000 "
b1101100000 *
b1101100000 R
b1100000 b
#180
b1011011 "
b1101011011 *
b1101011011 R
b1011011 b
#182
b1011101 "
b1101011101 *
b1101011101 R
b1011101 b
#186
b1100000 "
b1101100000 *
b1101100000 R
b1100000 b
#188
b1011011 "
b1101011011 *
b1101011011 R
b1011011 b
#189
b1011110 "
b1101011110 *
b1101011110 R
b1011110 b
#193
b1011111 "
b1101011111 *
b1101011111 R
b1011111 b
#197
b1011101 "
b1101011101 *
b1101011101 R
b1011101 b
#199
b1100010 "
b1101100010 *
b1101100010 R
b1100010 b
#201
b1011111 "
b1101011111 *
b1101011111 R
b1011111 b
#203
b1100100 "
b1101100100 *
b1101100100 R
b1100100 b
#205
b1100010 "
b1101100010 *
b1101100010 R
b1100010 b
#207
b1100100 "
b1101100100 *
b1101100100 R
b1100100 b
#209
b1100000 "
b1101100000 *
b1101100000 R
b1100000 b
#212
b1100100 "
b1101100100 *
b1101100100 R
b1100100 b
#214
b1100110 "
b1101100110 *
b1101100110 R
b1100110 b
#216
b1100100 "
b1101100100 *
b1101100100 R
b1100100 b
#220
b1100101 "
b1101100101 *
b1101100101 R
b1100101 b
#224
b1100110 "
b1101100110 *
b1101100110 R
b1100110 b
#231
b1101000 "
b1101101000 *
b1101101000 R
b1101000 b
#235
b1101001 "
b1101101001 *
b1101101001 R
b1101001 b
#239
b1100110 "
b1101100110 *
b1101100110 R
b1100110 b
#241
b1101011 "
b1101101011 *
b1101101011 R
b1101011 b
#249
b1101101 "
b1101101101 *
b1101101101 R
b1101101 b
#251
b1101111 "
b1101101111 *
b1101101111 R
b1101111 b
#252
b1101110 "
b1101101110 *
b1101101110 R
b1101110 b
#254
b1101101 "
b1101101101 *
b1101101101 R
b1101101 b
#256
b1101011 "
b1101101011 *
b1101101011 R
b1101011 b
#260
b1110001 "
b1101110001 *
b1101110001 R
b1110001 b
#262
b1101111 "
b1101101111 *
b1101101111 R
b1101111 b
#264
b1110001 "
b1101110001 *
b1101110001 R
b1110001 b
#266
b1101110 "
b1101101110 *
b1101101110 R
b1101110 b
#268
b1101111 "
b1101101111 *
b1101101111 R
b1101111 b
#270
b1110001 "
b1101110001 *
b1101110001 R
b1110001 b
#277
b1110011 "
b1101110011 *
b1101110011 R
b1110011 b
#279
b1110001 "
b1101110001 *
b1101110001 R
b1110001 b
#281
b1110110 "
b1101110110 *
b1101110110 R
b1110110 b
#283
b1110100 "
b1101110100 *
b1101110100 R
b1110100 b
#287
b1110011 "
b1101110011 *
b1101110011 R
b1110011 b
#289
b1110110 "
b1101110110 *
b1101110110 R
b1110110 b
#293
b1110111 "
b1101110111 *
b1101110111 R
b1110111 b
#298
b1111000 "
b1101111000 *
b1101111000 R
b1111000 b
#300
b1110110 "
b1101110110 *
b1101110110 R
b1110110 b
#304
b1110111 "
b1101110111 *
b1101110111 R
b1110111 b
#306
b1111000 "
b1101111000 *
b1101111000 R
b1111000 b
#308
b1111010 "
b1101111010 *
b1101111010 R
b1111010 b
#310
b1111000 "
b1101111000 *
b1101111000 R
b1111000 b
#312
b1111100 "
b1101111100 *
b1101111100 R
b1111100 b
#314
b1111110 "
b1101111110 *
b1101111110 R
b1111110 b
#315
b1111111 "
b1101111111 *
b1101111111 R
b1111111 b
#316
b1111101 "
b1101111101 *
b1101111101 R
b1111101 b
#317
b1111110 "
b1101111110 *
b1101111110 R
b1111110 b
#321
b1111010 "
b1101111010 *
b1101111010 R
b1111010 b
#323
b1111100 "
b1101111100 *
b1101111100 R
b1111100 b
#325
b10000100 "
b1110000100 *
b1110000100 R
b10000100 b
1j
#327
b1111110 "
b1101111110 *
b1101111110 R
b1111110 b
0j
#329
b10000001 "
b1110000001 *
b1110000001 R
b10000001 b
1j
#331
b10000010 "
b1110000010 *
b1110000010 R
b10000010 b
#333
b10000100 "
b1110000100 *
b1110000100 R
b10000100 b
#335
b10000101 "
b1110000101 *
b1110000101 R
b10000101 b
#337
b10001000 "
b1110001000 *
b1110001000 R
b10001000 b
#338
b10001010 "
b1110001010 *
b1110001010 R
b10001010 b
#342
b10001000 "
b1110001000 *
b1110001000 R
b10001000 b
#344
b10001010 "
b1110001010 *
b1110001010 R
b10001010 b
#348
b10001100 "
b1110001100 *
b1110001100 R
b10001100 b
#350
b10001010 "
b1110001010 *
b1110001010 R
b10001010 b
#352
b10001100 "
b1110001100 *
b1110001100 R
b10001100 b
#354
b10001101 "
b1110001101 *
b1110001101 R
b10001101 b
#356
b0 "
b1000000000 *
b1000000000 R
b0 b
0j
0k
b10 l
#601
b10001010 "
b1110001010 *
b1110001010 R
b10001010 b
1j
1k
b11 l
#603
b10000101 "
b1110000101 *
b1110000101 R
b10000101 b
#605
b10000111 "
b1110000111 *
b1110000111 R
b10000111 b
#608
b10000101 "
b1110000101 *
b1110000101 R
b10000101 b
#610
b10001000 "
b1110001000 *
b1110001000 R
b10001000 b
#612
b10000100 "
b1110000100 *
b1110000100 R
b10000100 b
#614
b10000111 "
b1110000111 *
b1110000111 R
b10000111 b
#616
b10000010 "
b1110000010 *
b1110000010 R
b10000010 b
#618
b10001010 "
b1110001010 *
b1110001010 R
b10001010 b
#620
b10000100 "
b1110000100 *
b1110000100 R
b10000100 b
#622
b10000101 "
b1110000101 *
b1110000101 R
b10000101 b
#624
b10001010 "
b1110001010 *
b1110001010 R
b10001010 b
#626
b10000100 "
b1110000100 *
b1110000100 R
b10000100 b
#628
b10000101 "
b1110000101 *
b1110000101 R
b10000101 b
#630
b10000100 "
b1110000100 *
b1110000100 R
b10000100 b
#631
b1111110 "
b1101111110 *
b1101111110 R
b1111110 b
0j
#633
b10000001 "
b1110000001 *
b1110000001 R
b10000001 b
1j
#639
b10000101 "
b1110000101 *
b1110000101 R
b10000101 b
#641
b10000001 "
b1110000001 *
b1110000001 R
b10000001 b
#649
b10000101 "
b1110000101 *
b1110000101 R
b10000101 b
#651
b10000001 "
b1110000001 *
b1110000001 R
b10000001 b
#653
b10001000 "
b1110001000 *
b1110001000 R
b10001000 b
#654
b10000001 "
b1110000001 *
b1110000001 R
b10000001 b
#656
b10000100 "
b1110000100 *
b1110000100 R
b10000100 b
#658
b10000010 "
b1110000010 *
b1110000010 R
b10000010 b
#660
b10000100 "
b1110000100 *
b1110000100 R
b10000100 b
#662
b10001000 "
b1110001000 *
b1110001000 R
b10001000 b
#664
b10000101 "
b1110000101 *
b1110000101 R
b10000101 b
#666
b10000100 "
b1110000100 *
b1110000100 R
b10000100 b
#670
b10000010 "
b1110000010 *
b1110000010 R
b10000010 b
#672
b1111111 "
b1101111111 *
b1101111111 R
b1111111 b
0j
#674
b10000100 "
b1110000100 *
b1110000100 R
b10000100 b
1j
#676
b10000010 "
b1110000010 *
b1110000010 R
b10000010 b
#679
b1111111 "
b1101111111 *
b1101111111 R
b1111111 b
0j
#681
b10000010 "
b1110000010 *
b1110000010 R
b10000010 b
1j
#687
b10000100 "
b1110000100 *
b1110000100 R
b10000100 b
#689
b10000010 "
b1110000010 *
b1110000010 R
b10000010 b
#695
b1111111 "
b1101111111 *
b1101111111 R
b1111111 b
0j
#698
b11101111 "
b1111101111 *
b1111101111 R
b11101111 b
1j
#699
b10000100 "
b1110000100 *
b1110000100 R
b10000100 b
#700
b1111111 "
b1101111111 *
b1101111111 R
b1111111 b
0j
#702
b10000010 "
b1110000010 *
b1110000010 R
b10000010 b
1j
#704
b1111111 "
b1101111111 *
b1101111111 R
b1111111 b
0j
#706
b10000010 "
b1110000010 *
b1110000010 R
b10000010 b
1j
#708
b1111111 "
b1101111111 *
b1101111111 R
b1111111 b
0j
#712
b10000010 "
b1110000010 *
b1110000010 R
b10000010 b
1j
#714
b1111110 "
b1101111110 *
b1101111110 R
b1111110 b
0j
#716
b10000100 "
b1110000100 *
b1110000100 R
b10000100 b
1j
#718
b10000101 "
b1110000101 *
b1110000101 R
b10000101 b
#720
b10000001 "
b1110000001 *
b1110000001 R
b10000001 b
#721
b10000100 "
b1110000100 *
b1110000100 R
b10000100 b
#723
b1111110 "
b1101111110 *
b1101111110 R
b1111110 b
0j
#725
b1111111 "
b1101111111 *
b1101111111 R
b1111111 b
#727
b1111101 "
b1101111101 *
b1101111101 R
b1111101 b
#729
b10000010 "
b1110000010 *
b1110000010 R
b10000010 b
1j
#731
b1111101 "
b1101111101 *
b1101111101 R
b1111101 b
0j
#733
b1111100 "
b1101111100 *
b1101111100 R
b1111100 b
#735
b1111001 "
b1101111001 *
b1101111001 R
b1111001 b
#737
b1111101 "
b1101111101 *
b1101111101 R
b1111101 b
#739
b1111100 "
b1101111100 *
b1101111100 R
b1111100 b
#740
b1111101 "
b1101111101 *
b1101111101 R
b1111101 b
#741
b1111001 "
b1101111001 *
b1101111001 R
b1111001 b
#742
b1111101 "
b1101111101 *
b1101111101 R
b1111101 b
#744
b1110111 "
b1101110111 *
b1101110111 R
b1110111 b
#746
b1111010 "
b1101111010 *
b1101111010 R
b1111010 b
#748
b1110100 "
b1101110100 *
b1101110100 R
b1110100 b
#750
b1110011 "
b1101110011 *
b1101110011 R
b1110011 b
#752
b1110111 "
b1101110111 *
b1101110111 R
b1110111 b
#754
b1110001 "
b1101110001 *
b1101110001 R
b1110001 b
#756
b1110011 "
b1101110011 *
b1101110011 R
b1110011 b
#758
b1101110 "
b1101101110 *
b1101101110 R
b1101110 b
#760
b1101011 "
b1101101011 *
b1101101011 R
b1101011 b
#761
b1101111 "
b1101101111 *
b1101101111 R
b1101111 b
#762
b1101110 "
b1101101110 *
b1101101110 R
b1101110 b
#763
b1101101 "
b1101101101 *
b1101101101 R
b1101101 b
#765
b1101000 "
b1101101000 *
b1101101000 R
b1101000 b
#767
b1100110 "
b1101100110 *
b1101100110 R
b1100110 b
#769
b1101000 "
b1101101000 *
b1101101000 R
b1101000 b
#773
b1100011 "
b1101100011 *
b1101100011 R
b1100011 b
#775
b1100101 "
b1101100101 *
b1101100101 R
b1100101 b
#779
b1100110 "
b1101100110 *
b1101100110 R
b1100110 b
#781
b1101000 "
b1101101000 *
b1101101000 R
b1101000 b
#784
b1101011 "
b1101101011 *
b1101101011 R
b1101011 b
#790
b1101101 "
b1101101101 *
b1101101101 R
b1101101 b
#792
b1101111 "
b1101101111 *
b1101101111 R
b1101111 b
#794
b1101000 "
b1101101000 *
b1101101000 R
b1101000 b
#796
b1101101 "
b1101101101 *
b1101101101 R
b1101101 b
#798
b1100100 "
b1101100100 *
b1101100100 R
b1100100 b
#800
b1101000 "
b1101101000 *
b1101101000 R
b1101000 b
#803
b1101101 "
b1101101101 *
b1101101101 R
b1101101 b
#804
b1100101 "
b1101100101 *
b1101100101 R
b1100101 b
#807
b1100010 "
b1101100010 *
b1101100010 R
b1100010 b
#809
b1011111 "
b1101011111 *
b1101011111 R
b1011111 b
#811
b1100101 "
b1101100101 *
b1101100101 R
b1100101 b
#813
b1011010 "
b1101011010 *
b1101011010 R
b1011010 b
#815
b1100100 "
b1101100100 *
b1101100100 R
b1100100 b
#817
b1100000 "
b1101100000 *
b1101100000 R
b1100000 b
#821
b1100011 "
b1101100011 *
b1101100011 R
b1100011 b
#823
b1100000 "
b1101100000 *
b1101100000 R
b1100000 b
#826
b1100011 "
b1101100011 *
b1101100011 R
b1100011 b
#828
b1011110 "
b1101011110 *
b1101011110 R
b1011110 b
#830
b1100010 "
b1101100010 *
b1101100010 R
b1100010 b
#832
b1011111 "
b1101011111 *
b1101011111 R
b1011111 b
#836
b1011101 "
b1101011101 *
b1101011101 R
b1011101 b
#838
b1011111 "
b1101011111 *
b1101011111 R
b1011111 b
#840
b1100100 "
b1101100100 *
b1101100100 R
b1100100 b
#842
b1011110 "
b1101011110 *
b1101011110 R
b1011110 b
#844
b1011111 "
b1101011111 *
b1101011111 R
b1011111 b
#846
b1011110 "
b1101011110 *
b1101011110 R
b1011110 b
#847
b1011011 "
b1101011011 *
b1101011011 R
b1011011 b
#849
b1011001 "
b1101011001 *
b1101011001 R
b1011001 b
#851
b1011011 "
b1101011011 *
b1101011011 R
b1011011 b
#859
b1011001 "
b1101011001 *
b1101011001 R
b1011001 b
#861
b1011011 "
b1101011011 *
b1101011011 R
b1011011 b
#863
b1011000 "
b1101011000 *
b1101011000 R
b1011000 b
#865
b1011101 "
b1101011101 *
b1101011101 R
b1011101 b
#868
b1011110 "
b1101011110 *
b1101011110 R
b1011110 b
#872
b1100100 "
b1101100100 *
b1101100100 R
b1100100 b
#874
b1100101 "
b1101100101 *
b1101100101 R
b1100101 b
#878
b1101000 "
b1101101000 *
b1101101000 R
b1101000 b
#880
b1101001 "
b1101101001 *
b1101101001 R
b1101001 b
#882
b1011111 "
b1101011111 *
b1101011111 R
b1011111 b
#884
b1011110 "
b1101011110 *
b1101011110 R
b1011110 b
#886
b1100100 "
b1101100100 *
b1101100100 R
b1100100 b
#888
b1011111 "
b1101011111 *
b1101011111 R
b1011111 b
#889
b1100101 "
b1101100101 *
b1101100101 R
b1100101 b
#893
b1100100 "
b1101100100 *
b1101100100 R
b1100100 b
#897
b1100011 "
b1101100011 *
b1101100011 R
b1100011 b
#899
b1100101 "
b1101100101 *
b1101100101 R
b1100101 b
#901
b1100110 "
b1101100110 *
b1101100110 R
b1100110 b
#903
b1101011 "
b1101101011 *
b1101101011 R
b1101011 b
#905
b1100101 "
b1101100101 *
b1101100101 R
b1100101 b
#912
b1101001 "
b1101101001 *
b1101101001 R
b1101001 b
#914
b1100110 "
b1101100110 *
b1101100110 R
b1100110 b
#916
b1101011 "
b1101101011 *
b1101101011 R
b1101011 b
#918
b1100101 "
b1101100101 *
b1101100101 R
b1100101 b
#920
b1101011 "
b1101101011 *
b1101101011 R
b1101011 b
#922
b1100101 "
b1101100101 *
b1101100101 R
b1100101 b
#924
b1101000 "
b1101101000 *
b1101101000 R
b1101000 b
#926
b1100010 "
b1101100010 *
b1101100010 R
b1100010 b
#928
b1100100 "
b1101100100 *
b1101100100 R
b1100100 b
#930
b1100000 "
b1101100000 *
b1101100000 R
b1100000 b
#931
b1100100 "
b1101100100 *
b1101100100 R
b1100100 b
#933
b1100000 "
b1101100000 *
b1101100000 R
b1100000 b
#935
b1011111 "
b1101011111 *
b1101011111 R
b1011111 b
#937
b1011011 "
b1101011011 *
b1101011011 R
b1011011 b
#939
b1011111 "
b1101011111 *
b1101011111 R
b1011111 b
#941
b1011001 "
b1101011001 *
b1101011001 R
b1011001 b
#943
b1011011 "
b1101011011 *
b1101011011 R
b1011011 b
#945
b1011010 "
b1101011010 *
b1101011010 R
b1011010 b
#947
b1010111 "
b1101010111 *
b1101010111 R
b1010111 b
#949
b1011010 "
b1101011010 *
b1101011010 R
b1011010 b
#951
b1010100 "
b1101010100 *
b1101010100 R
b1010100 b
#954
b1010101 "
b1101010101 *
b1101010101 R
b1010101 b
#956
b1010100 "
b1101010100 *
b1101010100 R
b1010100 b
#958
b1011000 "
b1101011000 *
b1101011000 R
b1011000 b
#960
b1010100 "
b1101010100 *
b1101010100 R
b1010100 b
#962
b1010010 "
b1101010010 *
b1101010010 R
b1010010 b
#966
b1010001 "
b1101010001 *
b1101010001 R
b1010001 b
#972
b1001110 "
b1101001110 *
b1101001110 R
b1001110 b
#973
b1011010 "
b1101011010 *
b1101011010 R
b1011010 b
#974
b1010000 "
b1101010000 *
b1101010000 R
b1010000 b
#975
b1001101 "
b1101001101 *
b1101001101 R
b1001101 b
#977
b1010001 "
b1101010001 *
b1101010001 R
b1010001 b
#979
b1001101 "
b1101001101 *
b1101001101 R
b1001101 b
#981
b1001010 "
b1101001010 *
b1101001010 R
b1001010 b
#985
b1001000 "
b1101001000 *
b1101001000 R
b1001000 b
#989
b1001010 "
b1101001010 *
b1101001010 R
b1001010 b
#993
b1001011 "
b1101001011 *
b1101001011 R
b1001011 b
#994
b1001010 "
b1101001010 *
b1101001010 R
b1001010 b
#1002
b1001001 "
b1101001001 *
b1101001001 R
b1001001 b
#1004
b1001100 "
b1101001100 *
b1101001100 R
b1001100 b
#1006
b1001010 "
b1101001010 *
b1101001010 R
b1001010 b
#1010
b1001100 "
b1101001100 *
b1101001100 R
b1001100 b
#1012
b1001011 "
b1101001011 *
b1101001011 R
b1001011 b
#1014
b1001010 "
b1101001010 *
b1101001010 R
b1001010 b
#1017
b1001101 "
b1101001101 *
b1101001101 R
b1001101 b
#1019
b1001100 "
b1101001100 *
b1101001100 R
b1001100 b
#1021
b1001010 "
b1101001010 *
b1101001010 R
b1001010 b
#1023
b1001000 "
b1101001000 *
b1101001000 R
b1001000 b
#1025
b1000111 "
b1101000111 *
b1101000111 R
b1000111 b
#1027
b1001010 "
b1101001010 *
b1101001010 R
b1001010 b
#1029
b1001100 "
b1101001100 *
b1101001100 R
b1001100 b
#1033
b1001001 "
b1101001001 *
b1101001001 R
b1001001 b
#1035
b1000111 "
b1101000111 *
b1101000111 R
b1000111 b
#1037
b1001000 "
b1101001000 *
b1101001000 R
b1001000 b
#1038
b1000101 "
b1101000101 *
b1101000101 R
b1000101 b
#1040
b1000111 "
b1101000111 *
b1101000111 R
b1000111 b
#1042
b1000100 "
b1101000100 *
b1101000100 R
b1000100 b
#1044
b1000101 "
b1101000101 *
b1101000101 R
b1000101 b
#1046
b1000011 "
b1101000011 *
b1101000011 R
b1000011 b
#1048
b1000100 "
b1101000100 *
b1101000100 R
b1000100 b
#1050
b1000010 "
b1101000010 *
b1101000010 R
b1000010 b
#1054
b1000001 "
b1101000001 *
b1101000001 R
b1000001 b
#1056
b1000011 "
b1101000011 *
b1101000011 R
b1000011 b
#1059
b1000111 "
b1101000111 *
b1101000111 R
b1000111 b
#1060
b1000101 "
b1101000101 *
b1101000101 R
b1000101 b
#1061
b1001010 "
b1101001010 *
b1101001010 R
b1001010 b
#1063
b1000110 "
b1101000110 *
b1101000110 R
b1000110 b
#1065
b1000111 "
b1101000111 *
b1101000111 R
b1000111 b
#1067
b1000110 "
b1101000110 *
b1101000110 R
b1000110 b
#1069
b1000111 "
b1101000111 *
b1101000111 R
b1000111 b
#1073
b1000011 "
b1101000011 *
b1101000011 R
b1000011 b
#1075
b1000001 "
b1101000001 *
b1101000001 R
b1000001 b
#1079
b1000011 "
b1101000011 *
b1101000011 R
b1000011 b
#1081
b1000101 "
b1101000101 *
b1101000101 R
b1000101 b
#1083
b1000011 "
b1101000011 *
b1101000011 R
b1000011 b
#1088
b1000001 "
b1101000001 *
b1101000001 R
b1000001 b
#1090
b1000011 "
b1101000011 *
b1101000011 R
b1000011 b
#1092
b1000100 "
b1101000100 *
b1101000100 R
b1000100 b
#1096
b1000101 "
b1101000101 *
b1101000101 R
b1000101 b
#1098
b1000011 "
b1101000011 *
b1101000011 R
b1000011 b
#1100
b1000100 "
b1101000100 *
b1101000100 R
b1000100 b
#1102
b1000111 "
b1101000111 *
b1101000111 R
b1000111 b
#1104
b1000101 "
b1101000101 *
b1101000101 R
b1000101 b
#1106
b1000111 "
b1101000111 *
b1101000111 R
b1000111 b
#1107
b1000110 "
b1101000110 *
b1101000110 R
b1000110 b
#1109
b1000111 "
b1101000111 *
b1101000111 R
b1000111 b
#1115
b1000101 "
b1101000101 *
b1101000101 R
b1000101 b
#1117
b1000111 "
b1101000111 *
b1101000111 R
b1000111 b
#1119
b1000101 "
b1101000101 *
b1101000101 R
b1000101 b
#1121
b1000111 "
b1101000111 *
b1101000111 R
b1000111 b
#1129
b1000100 "
b1101000100 *
b1101000100 R
b1000100 b
#1130
b1000011 "
b1101000011 *
b1101000011 R
b1000011 b
#1132
b1000000 "
b1101000000 *
b1101000000 R
b1000000 b
#1136
b111100 "
b1100111100 *
b1100111100 R
b111100 b
#1138
b1000000 "
b1101000000 *
b1101000000 R
b1000000 b
#1140
b111110 "
b1100111110 *
b1100111110 R
b111110 b
#1142
b1000001 "
b1101000001 *
b1101000001 R
b1000001 b
#1144
b111110 "
b1100111110 *
b1100111110 R
b111110 b
#1146
b1000000 "
b1101000000 *
b1101000000 R
b1000000 b
#1148
b111111 "
b1100111111 *
b1100111111 R
b111111 b
#1150
b111110 "
b1100111110 *
b1100111110 R
b111110 b
#1152
b111101 "
b1100111101 *
b1100111101 R
b111101 b
#1153
b111110 "
b1100111110 *
b1100111110 R
b111110 b
#1155
b111100 "
b1100111100 *
b1100111100 R
b111100 b
#1165
b111110 "
b1100111110 *
b1100111110 R
b111110 b
#1167
b111100 "
b1100111100 *
b1100111100 R
b111100 b
#1171
b111011 "
b1100111011 *
b1100111011 R
b111011 b
#1173
b111100 "
b1100111100 *
b1100111100 R
b111100 b
#1176
b1000001 "
b1101000001 *
b1101000001 R
b1000001 b
#1178
b111101 "
b1100111101 *
b1100111101 R
b111101 b
#1186
b1000000 "
b1101000000 *
b1101000000 R
b1000000 b
#1190
b111110 "
b1100111110 *
b1100111110 R
b111110 b
#1192
b1000000 "
b1101000000 *
b1101000000 R
b1000000 b
#1194
b111100 "
b1100111100 *
b1100111100 R
b111100 b
#1199
b111011 "
b1100111011 *
b1100111011 R
b111011 b
#1201
b111100 "
b1100111100 *
b1100111100 R
b111100 b
#1205
b111011 "
b1100111011 *
b1100111011 R
b111011 b
#1207
b111100 "
b1100111100 *
b1100111100 R
b111100 b
#1209
b111011 "
b1100111011 *
b1100111011 R
b111011 b
#1211
b111100 "
b1100111100 *
b1100111100 R
b111100 b
#1213
b111011 "
b1100111011 *
b1100111011 R
b111011 b
#1215
b111100 "
b1100111100 *
b1100111100 R
b111100 b
#1217
b111010 "
b1100111010 *
b1100111010 R
b111010 b
#1219
b111101 "
b1100111101 *
b1100111101 R
b111101 b
#1220
b1000011 "
b1101000011 *
b1101000011 R
b1000011 b
#1222
b1000010 "
b1101000010 *
b1101000010 R
b1000010 b
#1226
b1000100 "
b1101000100 *
b1101000100 R
b1000100 b
#1228
b1000011 "
b1101000011 *
b1101000011 R
b1000011 b
#1232
b1000100 "
b1101000100 *
b1101000100 R
b1000100 b
#1234
b1001101 "
b1101001101 *
b1101001101 R
b1001101 b
#1236
b1000111 "
b1101000111 *
b1101000111 R
b1000111 b
#1238
b1001010 "
b1101001010 *
b1101001010 R
b1001010 b
#1240
b1000111 "
b1101000111 *
b1101000111 R
b1000111 b
#1247
b1001000 "
b1101001000 *
b1101001000 R
b1001000 b
#1249
b1001010 "
b1101001010 *
b1101001010 R
b1001010 b
#1251
b1001000 "
b1101001000 *
b1101001000 R
b1001000 b
#1253
b1001010 "
b1101001010 *
b1101001010 R
b1001010 b
#1255
b1000111 "
b1101000111 *
b1101000111 R
b1000111 b
#1259
b1000110 "
b1101000110 *
b1101000110 R
b1000110 b
#1261
b1000111 "
b1101000111 *
b1101000111 R
b1000111 b
#1263
b1000100 "
b1101000100 *
b1101000100 R
b1000100 b
#1264
b1000111 "
b1101000111 *
b1101000111 R
b1000111 b
#1266
b1000101 "
b1101000101 *
b1101000101 R
b1000101 b
#1272
b1000111 "
b1101000111 *
b1101000111 R
b1000111 b
#1274
b1000101 "
b1101000101 *
b1101000101 R
b1000101 b
#1276
b1000110 "
b1101000110 *
b1101000110 R
b1000110 b
#1278
b1000100 "
b1101000100 *
b1101000100 R
b1000100 b
#1282
b1000011 "
b1101000011 *
b1101000011 R
b1000011 b
#1284
b1000110 "
b1101000110 *
b1101000110 R
b1000110 b
#1286
b1000100 "
b1101000100 *
b1101000100 R
b1000100 b
#1287
b1000110 "
b1101000110 *
b1101000110 R
b1000110 b
#1289
b1000111 "
b1101000111 *
b1101000111 R
b1000111 b
#1291
b1000011 "
b1101000011 *
b1101000011 R
b1000011 b
#1293
b1000111 "
b1101000111 *
b1101000111 R
b1000111 b
#1297
b1001000 "
b1101001000 *
b1101001000 R
b1001000 b
#1301
b1000110 "
b1101000110 *
b1101000110 R
b1000110 b
#1303
b1000111 "
b1101000111 *
b1101000111 R
b1000111 b
#1307
b1000011 "
b1101000011 *
b1101000011 R
b1000011 b
#1309
b1000100 "
b1101000100 *
b1101000100 R
b1000100 b
