kintex_map_dec_video_fifo/kintex_5cam/.Xil/Vivado-9376-DESKTOP-401LVPF/hw_ila_data_1/zip_work/waveform.vcd
$date
        2023-Nov-28 14:50:47
$end
$version
        Vivado v2023.1 (64-bit)
$end
$timescale
        1ps
$end
$scope module dut $end
$var reg 40 " dbg_sig [39:0] $end
$var reg 16 J user_probe_0 [15:0] $end
$var reg 8 Z user_probe_1 [7:0] $end
$var reg 1 b user_probe_7 $end
$var reg 8 c user_probe_2 [15:8] $end
$var reg 1 k user_probe_11 $end
$var reg 1 l user_probe_12 $end
$var reg 1 m user_probe_13 $end
$var reg 1 n user_probe_14_1 $end
$var reg 1 o user_probe_15 $end
$var reg 1 p user_probe_15_1 $end
$var reg 1 q user_probe_27 $end
$var reg 1 r user_probe_27_1 $end
$var reg 1 s _TRIGGER $end
$var reg 1 t _WINDOW $end
$var reg 1 u _GAP $end
$upscope $end
$enddefinitions $end
#0
$dumpvars
b11100010000000000110000000000001010001 "
b1010001 J
b1010001 Z
0b
b0 c
0k
0l
0m
0n
0o
0p
0q
0r
0s
1t
0u
$end
#1
b11100010000000010010000000000001010100 "
b1010100 J
b1010100 Z
#3
b11100010000000001110000000000001010011 "
b1010011 J
b1010011 Z
#5
b11100010000000010010000000000001010100 "
b1010100 J
b1010100 Z
#7
b11100010000000001110000000000001010011 "
b1010011 J
b1010011 Z
#8
b11100010000000001110000000000001010100 "
b1010100 J
b1010100 Z
#9
b11100010000000010010000000000001010100 "
#12
b11100010000000001110000000000001010011 "
b1010011 J
b1010011 Z
#20
b11100010000000010010000000000001010100 "
b1010100 J
b1010100 Z
#22
b11100010000000001110000000000001010011 "
b1010011 J
b1010011 Z
#26
b11100010000000001010000000000001010010 "
b1010010 J
b1010010 Z
#28
b11100010000000010010000000000001010100 "
b1010100 J
b1010100 Z
#30
b11100010000000001110000000000001010011 "
b1010011 J
b1010011 Z
#31
b11100010000000001110000000000001010101 "
b1010101 J
b1010101 Z
#32
b11100010000000010110000000000001010101 "
#33
b11100010000000001110000000000001010011 "
b1010011 J
b1010011 Z
#35
b11100010000000010110000000000001010101 "
b1010101 J
b1010101 Z
#37
b11100010000000001110000000000001010011 "
b1010011 J
b1010011 Z
#39
b11100010000000010010000000000001010100 "
b1010100 J
b1010100 Z
#47
b11100010000000010110000000000001010101 "
b1010101 J
b1010101 Z
#51
b11100010000000010010000000000001010100 "
b1010100 J
b1010100 Z
#53
b11100010000000010110000000000001010101 "
b1010101 J
b1010101 Z
#56
b11100010000000001110000000000001010011 "
b1010011 J
b1010011 Z
#58
b11100010000000000110000000000001010001 "
b1010001 J
b1010001 Z
#60
b11100010000000010010000000000001010100 "
b1010100 J
b1010100 Z
#62
b11100010000000001010000000000001010010 "
b1010010 J
b1010010 Z
#64
b11100010000000010010000000000001010100 "
b1010100 J
b1010100 Z
#66
b11100010000000010110000000000001010101 "
b1010101 J
b1010101 Z
#68
b11100010000000010010000000000001010100 "
b1010100 J
b1010100 Z
#70
b11100010000000010110000000000001010101 "
b1010101 J
b1010101 Z
#72
b11100010000000010010000000000001010100 "
b1010100 J
b1010100 Z
#74
b11100010000000100010000000000001011000 "
b1011000 J
b1011000 Z
#76
b11100010000000010110000000000001010101 "
b1010101 J
b1010101 Z
#77
b11100010000000010110000000000001010100 "
b1010100 J
b1010100 Z
#78
b11100010000000010010000000000001010100 "
#79
b11100010000000000110000000000001010001 "
b1010001 J
b1010001 Z
#81
b11100010000000001010000000000001010010 "
b1010010 J
b1010010 Z
#85
b11100010000000010010000000000001010100 "
b1010100 J
b1010100 Z
#89
b11100010000000110110000000000001011101 "
b1011101 J
b1011101 Z
#91
b11100010000000101010000000000001011010 "
b1011010 J
b1011010 Z
#93
b11100010000000010110000000000001010101 "
b1010101 J
b1010101 Z
#95
b11100010000000100110000000000001011001 "
b1011001 J
b1011001 Z
#97
b11100010000000011110000000000001010111 "
b1010111 J
b1010111 Z
#99
b11100010000000101010000000000001011010 "
b1011010 J
b1011010 Z
#102
b11100010000000101010000000000001011000 "
b1011000 J
b1011000 Z
#103
b11100010000000100010000000000001011000 "
#104
b11100010000000011110000000000001010111 "
b1010111 J
b1010111 Z
#106
b11100010000000010010000000000001010100 "
b1010100 J
b1010100 Z
#108
b11100010000000011110000000000001010111 "
b1010111 J
b1010111 Z
#112
b11100010000000100110000000000001011001 "
b1011001 J
b1011001 Z
#114
b11100010000000011110000000000001010111 "
b1010111 J
b1010111 Z
#116
b11100010000000100110000000000001011001 "
b1011001 J
b1011001 Z
#118
b11100010000000010110000000000001010101 "
b1010101 J
b1010101 Z
#120
b11100010000000100010000000000001011000 "
b1011000 J
b1011000 Z
#122
b11100010000000010110000000000001010101 "
b1010101 J
b1010101 Z
#123
b11100010000000010110000000000001011101 "
b1011101 J
b1011101 Z
#124
b11100010000000100010000000000001011000 "
b1011000 J
b1011000 Z
#125
b11100010000000110110000000000001010101 "
b1010101 J
b1010101 Z
#126
b11100010000000010110000000000001010101 "
#127
b11100010000000110110000000000001011101 "
b1011101 J
b1011101 Z
#129
b11100010000000101010000000000001011010 "
b1011010 J
b1011010 Z
#131
b11100010000000101110000000000001011011 "
b1011011 J
b1011011 Z
#133
b11100010000000011110000000000001010111 "
b1010111 J
b1010111 Z
#135
b11100010000000100110000000000001011001 "
b1011001 J
b1011001 Z
#137
b11100010000000101110000000000001011011 "
b1011011 J
b1011011 Z
#139
b11100010000000100110000000000001011001 "
b1011001 J
b1011001 Z
#141
b11100010000000101110000000000001011011 "
b1011011 J
b1011011 Z
#143
b11100010000000111010000000000001011110 "
b1011110 J
b1011110 Z
#145
b11100010000000011110000000000001010111 "
b1010111 J
b1010111 Z
#146
b11100010000000011110000000000001011110 "
b1011110 J
b1011110 Z
#147
b11100010000000111010000000000001011110 "
#148
b11100010000000101110000000000001011011 "
b1011011 J
b1011011 Z
#152
b11100010000000100110000000000001011001 "
b1011001 J
b1011001 Z
#154
b11100010000000111010000000000001011110 "
b1011110 J
b1011110 Z
#156
b11100010000000000110000000000001010001 "
b1010001 J
b1010001 Z
#158
b11100010000000101110000000000001011011 "
b1011011 J
b1011011 Z
#160
b11100010000000111010000000000001011110 "
b1011110 J
b1011110 Z
#162
b11100010000000100110000000000001011001 "
b1011001 J
b1011001 Z
#164
b11100010000000111110000000000001011111 "
b1011111 J
b1011111 Z
#168
b11100010000000101010000000000001011010 "
b1011010 J
b1011010 Z
#169
b11100010000000101010000000000001011001 "
b1011001 J
b1011001 Z
#170
b11100010000000100110000000000001011001 "
#171
b11100010000000010110000000000001010101 "
b1010101 J
b1010101 Z
#173
b11100010000000101010000000000001011010 "
b1011010 J
b1011010 Z
#177
b11100010000000110110000000000001011101 "
b1011101 J
b1011101 Z
#179
b11100010000000101110000000000001011011 "
b1011011 J
b1011011 Z
#181
b11100010000000111010000000000001011110 "
b1011110 J
b1011110 Z
#183
b11100010000000110110000000000001011101 "
b1011101 J
b1011101 Z
#187
b11100010000000101010000000000001011010 "
b1011010 J
b1011010 Z
#189
b11100010000000100010000000000001011000 "
b1011000 J
b1011000 Z
#192
b11100010000000100010000000000001011010 "
b1011010 J
b1011010 Z
#193
b11100010000000101010000000000001011010 "
#194
b11100010000000110110000000000001011101 "
b1011101 J
b1011101 Z
#196
b11100010000000101010000000000001011010 "
b1011010 J
b1011010 Z
#198
b11100010000000101110000000000001011011 "
b1011011 J
b1011011 Z
#200
b11100010000000111010000000000001011110 "
b1011110 J
b1011110 Z
#202
b11100010000000111110000000000001011111 "
b1011111 J
b1011111 Z
#204
b11000010001000001010000000000001100010 "
b1100010 J
b1100010 Z
1q
1r
#206
b11100010000000110110000000000001011101 "
b1011101 J
b1011101 Z
0q
0r
#208
b11100010000000101010000000000001011010 "
b1011010 J
b1011010 Z
#210
b11100010000000111110000000000001011111 "
b1011111 J
b1011111 Z
#212
b11100010000000110110000000000001011101 "
b1011101 J
b1011101 Z
#213
b11100010000000110110000000000001011111 "
b1011111 J
b1011111 Z
#214
b11100010000000111110000000000001011111 "
#215
b11100010001000111110000000000001100000 "
b1100000 J
b1100000 Z
1q
1r
#216
b11000010001000000010000000000001100000 "
#217
b11100010000000101110000000000001011011 "
b1011011 J
b1011011 Z
0q
0r
#219
b11000010001000000010000000000001100000 "
b1100000 J
b1100000 Z
1q
1r
#221
b11100010000000111010000000000001011110 "
b1011110 J
b1011110 Z
0q
0r
#223
b11000010001000000010000000000001100000 "
b1100000 J
b1100000 Z
1q
1r
#225
b11100010000000111110000000000001011111 "
b1011111 J
b1011111 Z
0q
0r
#227
b11000010001000000010000000000001100000 "
b1100000 J
b1100000 Z
1q
1r
#233
b11100010000000111010000000000001011110 "
b1011110 J
b1011110 Z
0q
0r
#235
b11000010001000001110000000000001100011 "
b1100011 J
b1100011 Z
1q
1r
#236
b11000010001000001110000000000001011111 "
b1011111 J
b1011111 Z
#237
b11100010000000111010000000000001011110 "
b1011110 J
b1011110 Z
0q
0r
#238
b11100010001000111010000000000001100000 "
b1100000 J
b1100000 Z
1q
1r
#239
b11000010001000000010000000000001100000 "
#242
b11100010000000111010000000000001011110 "
b1011110 J
b1011110 Z
0q
0r
#244
b11000010001000011010000000000001100110 "
b1100110 J
b1100110 Z
1q
1r
#246
b11000010001000001010000000000001100010 "
b1100010 J
b1100010 Z
#248
b11000010001000010010000000000001100100 "
b1100100 J
b1100100 Z
#250
b11000010001000001110000000000001100011 "
b1100011 J
b1100011 Z
#252
b11100010000000111010000000000001011110 "
b1011110 J
b1011110 Z
0q
0r
#258
b11000010001000001010000000000001100010 "
b1100010 J
b1100010 Z
1q
1r
#259
b11000010001000001010000000000001100100 "
b1100100 J
b1100100 Z
#260
b11000010001000010010000000000001100100 "
#261
b11000010001000011010000000000001100110 "
b1100110 J
b1100110 Z
#263
b11000010001000010110000000000001100101 "
b1100101 J
b1100101 Z
#267
b11000010001000001110000000000001100011 "
b1100011 J
b1100011 Z
#273
b11000010001000011010000000000001100110 "
b1100110 J
b1100110 Z
#277
b11000010001000010110000000000001100101 "
b1100101 J
b1100101 Z
#279
b11000010001000001110000000000001100011 "
b1100011 J
b1100011 Z
#280
b11000010001000001110000000000001100111 "
b1100111 J
b1100111 Z
#281
b11000010001000010110000000000001100101 "
b1100101 J
b1100101 Z
#282
b11000010001000010110000000000001100010 "
b1100010 J
b1100010 Z
#283
b11000010001000001010000000000001100010 "
#284
b11000010001000010110000000000001100101 "
b1100101 J
b1100101 Z
#286
b11000010001000000010000000000001100000 "
b1100000 J
b1100000 Z
#288
b11000010001000100010000000000001101000 "
b1101000 J
b1101000 Z
#290
b11000010001000010010000000000001100100 "
b1100100 J
b1100100 Z
#292
b11000010001000100110000000000001101001 "
b1101001 J
b1101001 Z
#296
b11000010001000010010000000000001100100 "
b1100100 J
b1100100 Z
#298
b11000010001000100110000000000001101001 "
b1101001 J
b1101001 Z
#300
b11000010001000010110000000000001100101 "
b1100101 J
b1100101 Z
#303
b11000010001000010110000000000001100111 "
b1100111 J
b1100111 Z
#304
b11000010001000001110000000000001100011 "
b1100011 J
b1100011 Z
#305
b11000010001000011110000000000001100101 "
b1100101 J
b1100101 Z
#306
b11000010001000010110000000000001100101 "
#315
b11000010001000011010000000000001100110 "
b1100110 J
b1100110 Z
#317
b11000010001000100010000000000001101000 "
b1101000 J
b1101000 Z
#319
b11000010001000110110000000000001101101 "
b1101101 J
b1101101 Z
#321
b11000010001000101110000000000001101011 "
b1101011 J
b1101011 Z
#323
b11000010001000011010000000000001100110 "
b1100110 J
b1100110 Z
#324
b11000010001000011010000000000001100111 "
b1100111 J
b1100111 Z
#325
b11000010001000010110000000000001100101 "
b1100101 J
b1100101 Z
#326
b11000010001000010110000000000001100000 "
b1100000 J
b1100000 Z
#327
b11000010001000000010000000000001100000 "
#328
b11000010001000111110000000000001101111 "
b1101111 J
b1101111 Z
#330
b11000010001000001010000000000001100010 "
b1100010 J
b1100010 Z
#332
b11000010001000101110000000000001101011 "
b1101011 J
b1101011 Z
#334
b11000010001000011010000000000001100110 "
b1100110 J
b1100110 Z
#336
b11000010001000110110000000000001101101 "
b1101101 J
b1101101 Z
#338
b11000010001000101110000000000001101011 "
b1101011 J
b1101011 Z
#340
b11000010001000111010000000000001101110 "
b1101110 J
b1101110 Z
#342
b11000010001000101110000000000001101011 "
b1101011 J
b1101011 Z
#344
b11000010001000111010000000000001101110 "
b1101110 J
b1101110 Z
#345
b11000010001000111010000000000001100110 "
b1100110 J
b1100110 Z
#346
b11000010001000011010000000000001100110 "
#347
b11000010001000101110000000000001101011 "
b1101011 J
b1101011 Z
#349
b11000010001000011010000000000001100110 "
b1100110 J
b1100110 Z
#351
b11000010001000101110000000000001101011 "
b1101011 J
b1101011 Z
#353
b11000010001000011010000000000001100110 "
b1100110 J
b1100110 Z
#355
b11100010001000000110000000000001110001 "
b1110001 J
b1110001 Z
#357
b11000010001000011010000000000001100110 "
b1100110 J
b1100110 Z
#359
b11000010001000101110000000000001101011 "
b1101011 J
b1101011 Z
#363
b11000010001000110110000000000001101101 "
b1101101 J
b1101101 Z
#365
b11000010001000100010000000000001101000 "
b1101000 J
b1101000 Z
#366
b11000010001000100010000000000001101011 "
b1101011 J
b1101011 Z
#367
b11000010001000101110000000000001101011 "
#368
b11000010001000100010000000000001101000 "
b1101000 J
b1101000 Z
#370
b11000010001000101110000000000001101011 "
b1101011 J
b1101011 Z
#372
b11000010001000110110000000000001101101 "
b1101101 J
b1101101 Z
#374
b11000010001000101110000000000001101011 "
b1101011 J
b1101011 Z
#376
b11000010001000110110000000000001101101 "
b1101101 J
b1101101 Z
#378
b11000010001000111110000000000001101111 "
b1101111 J
b1101111 Z
#380
b11000010001000110110000000000001101101 "
b1101101 J
b1101101 Z
#382
b11000010001000101110000000000001101011 "
b1101011 J
b1101011 Z
#384
b11100010001000000110000000000001110001 "
b1110001 J
b1110001 Z
#386
b11000010001000111010000000000001101110 "
b1101110 J
b1101110 Z
#387
b11000010001000111010000000000001110001 "
b1110001 J
b1110001 Z
#388
b11100010001000000110000000000001110001 "
#389
b11100010001000001110000000000001110011 "
b1110011 J
b1110011 Z
#391
b11000010001000111010000000000001101110 "
b1101110 J
b1101110 Z
#393
b11100010001000001110000000000001110011 "
b1110011 J
b1110011 Z
#395
b11000010001000111110000000000001101111 "
b1101111 J
b1101111 Z
#399
b11000010001000101110000000000001101011 "
b1101011 J
b1101011 Z
#401
b11000010001000110110000000000001101101 "
b1101101 J
b1101101 Z
#405
b11000010001000111110000000000001101111 "
b1101111 J
b1101111 Z
#407
b11000010001000100010000000000001101000 "
b1101000 J
b1101000 Z
#408
b11000010001000100010000000000001101111 "
b1101111 J
b1101111 Z
#409
b11000010001000111110000000000001101111 "
#410
b11000010001000111110000000000001100101 "
b1100101 J
b1100101 Z
#411
b11000010001000010110000000000001100101 "
#412
b11000010001000110110000000000001101101 "
b1101101 J
b1101101 Z
#414
b11100010001000001110000000000001110011 "
b1110011 J
b1110011 Z
#416
b11100010001000000110000000000001110001 "
b1110001 J
b1110001 Z
#418
b11000010001000111010000000000001101110 "
b1101110 J
b1101110 Z
#422
b11100010001000000110000000000001110001 "
b1110001 J
b1110001 Z
#428
b11000010001000111010000000000001101110 "
b1101110 J
b1101110 Z
#429
b11000010001000111010000000000001111111 "
b1111111 J
b1111111 Z
#430
b11100010001000000110000000000001110001 "
b1110001 J
b1110001 Z
#431
b11100010001000111110000000000001101111 "
b1101111 J
b1101111 Z
#432
b11000010001000111110000000000001101111 "
#433
b11100010001000000110000000000001110001 "
b1110001 J
b1110001 Z
#435
b11000010001000101110000000000001101011 "
b1101011 J
b1101011 Z
#437
b11100010001000010010000000000001110100 "
b1110100 J
b1110100 Z
#439
b11000010001000110110000000000001101101 "
b1101101 J
b1101101 Z
#450
b11000010001000110110000000000001110001 "
b1110001 J
b1110001 Z
#451
b11100010001000000110000000000001110001 "
#454
b11000010001000111010000000000001101110 "
b1101110 J
b1101110 Z
#456
b11100010001000001110000000000001110011 "
b1110011 J
b1110011 Z
#458
b11000010001000111110000000000001101111 "
b1101111 J
b1101111 Z
#460
b11000010001000110110000000000001101101 "
b1101101 J
b1101101 Z
#462
b11000010001000111010000000000001101110 "
b1101110 J
b1101110 Z
#464
b11100010001000000110000000000001110001 "
b1110001 J
b1110001 Z
#471
b11100010001000000110000000000001111001 "
b1111001 J
b1111001 Z
#472
b11000010001000111010000000000001101110 "
b1101110 J
b1101110 Z
#473
b11100010001000111010000000000001110110 "
b1110110 J
b1110110 Z
#474
b11100010001000011010000000000001110110 "
#475
b11000010001000111010000000000001101110 "
b1101110 J
b1101110 Z
#477
b11100010001000001110000000000001110011 "
b1110011 J
b1110011 Z
#479
b11100010001000011010000000000001110110 "
b1110110 J
b1110110 Z
#485
b11100010001000001110000000000001110011 "
b1110011 J
b1110011 Z
#487
b11000010001000111010000000000001101110 "
b1101110 J
b1101110 Z
#491
b11100010001000001110000000000001110011 "
b1110011 J
b1110011 Z
#492
b11100010001000001110000000000001111111 "
b1111111 J
b1111111 Z
#493
b11000010001000111010000000000001101110 "
b1101110 J
b1101110 Z
#494
b11000010001000111010000000000001110011 "
b1110011 J
b1110011 Z
#495
b11100010001000001110000000000001110011 "
#496
b11100010001000010010000000000001110100 "
b1110100 J
b1110100 Z
#500
b11100010001000011110000000000001110111 "
b1110111 J
b1110111 Z
#504
b11000010001000110110000000000001101101 "
b1101101 J
b1101101 Z
#506
b11100010001000011110000000000001110111 "
b1110111 J
b1110111 Z
#508
b11100010001000011010000000000001110110 "
b1110110 J
b1110110 Z
#510
b11100010001000001110000000000001110011 "
b1110011 J
b1110011 Z
#512
b11100010001000011010000000000001110110 "
b1110110 J
b1110110 Z
#514
b11100010001000000110000000000001110001 "
b1110001 J
b1110001 Z
#515
b11100010001000000110000000000001111100 "
b1111100 J
b1111100 Z
#516
b11100010001000110010000000000001111100 "
#517
b11100010001000011110000000000001110111 "
b1110111 J
b1110111 Z
#519
b11100010001000010010000000000001110100 "
b1110100 J
b1110100 Z
#523
b11100010001000100110000000000001111001 "
b1111001 J
b1111001 Z
#525
b11100010001000010010000000000001110100 "
b1110100 J
b1110100 Z
#527
b11100010001000100010000000000001111000 "
b1111000 J
b1111000 Z
#529
b11100010001000011110000000000001110111 "
b1110111 J
b1110111 Z
#531
b11100010001000110110000000000001111101 "
b1111101 J
b1111101 Z
#533
b11100010001000101010000000000001111010 "
b1111010 J
b1111010 Z
#535
b11100010001000110110000000000001111101 "
b1111101 J
b1111101 Z
#536
b11100010001000110110000000000001111001 "
b1111001 J
b1111001 Z
#537
b11100010001000100110000000000001111001 "
#538
b11100010001000011110000000000001110111 "
b1110111 J
b1110111 Z
#540
b11100010001000100010000000000001111000 "
b1111000 J
b1111000 Z
#546
b11100010001000011110000000000001110111 "
b1110111 J
b1110111 Z
#548
b11100010001000101010000000000001111010 "
b1111010 J
b1111010 Z
#552
b11100010001000110010000000000001111100 "
b1111100 J
b1111100 Z
#554
b11100010001000011110000000000001110111 "
b1110111 J
b1110111 Z
#556
b11100010001000111110000000000001111111 "
b1111111 J
b1111111 Z
#557
b11100010001000111110000000000001111100 "
b1111100 J
b1111100 Z
#558
b11100010001000110010000000000001111100 "
#559
b11100010001000011110000000000001110111 "
b1110111 J
b1110111 Z
#561
b11100010001000100110000000000001111001 "
b1111001 J
b1111001 Z
#563
b10000000000000000000000000000000000000 "
b0 J
b0 Z
0q
0r
#808
b11000010001000110110000000000001101101 "
b1101101 J
b1101101 Z
1q
1r
#810
b11000010001000101110000000000001101011 "
b1101011 J
b1101011 Z
#814
b11000010001000100010000000000001101000 "
b1101000 J
b1101000 Z
#818
b11000010001000110110000000000001101101 "
b1101101 J
b1101101 Z
#820
b11000010001000101110000000000001101011 "
b1101011 J
b1101011 Z
#822
b11000010001000100010000000000001101000 "
b1101000 J
b1101000 Z
#823
b11000010001000100010000000000001101101 "
b1101101 J
b1101101 Z
#824
b11000010001000010110000000000001100101 "
b1100101 J
b1100101 Z
#825
b11000010001000110110000000000001101000 "
b1101000 J
b1101000 Z
#826
b11000010001000100010000000000001101000 "
#829
b11100010001000011110000000000001110111 "
b1110111 J
b1110111 Z
#831
b11100010001000010010000000000001110100 "
b1110100 J
b1110100 Z
#833
b11000010001000010010000000000001100100 "
b1100100 J
b1100100 Z
#835
b11000010001000100110000000000001101001 "
b1101001 J
b1101001 Z
#837
b11000010001000101110000000000001101011 "
b1101011 J
b1101011 Z
#839
b11000010001000111010000000000001101110 "
b1101110 J
b1101110 Z
#841
b11000010001000101110000000000001101011 "
b1101011 J
b1101011 Z
#843
b11000010001000100110000000000001101001 "
b1101001 J
b1101001 Z
#845
b11000010001000011010000000000001100110 "
b1100110 J
b1100110 Z
#848
b11000010001000111110000000000001101011 "
b1101011 J
b1101011 Z
#849
b11000010001000101110000000000001101011 "
#850
b11000010001000011010000000000001100110 "
b1100110 J
b1100110 Z
#852
b11000010001000100110000000000001101001 "
b1101001 J
b1101001 Z
#854
b11000010001000010110000000000001100101 "
b1100101 J
b1100101 Z
#856
b11000010001000001110000000000001100011 "
b1100011 J
b1100011 Z
#858
b11000010001000101110000000000001101011 "
b1101011 J
b1101011 Z
#860
b11000010001000010110000000000001100101 "
b1100101 J
b1100101 Z
#862
b11000010001000101110000000000001101011 "
b1101011 J
b1101011 Z
#864
b11000010001000100110000000000001101001 "
b1101001 J
b1101001 Z
#866
b11000010001000011010000000000001100110 "
b1100110 J
b1100110 Z
#871
b11000010001000010010000000000001100100 "
b1100100 J
b1100100 Z
#873
b11000010001000100110000000000001101001 "
b1101001 J
b1101001 Z
#879
b11000010001000010110000000000001100101 "
b1100101 J
b1100101 Z
#881
b11000010001000001110000000000001100011 "
b1100011 J
b1100011 Z
#883
b11000010001000010010000000000001100100 "
b1100100 J
b1100100 Z
#887
b11000010001000001010000000000001100010 "
b1100010 J
b1100010 Z
#889
b11000010001000011010000000000001100110 "
b1100110 J
b1100110 Z
#892
b11000010001000011010000000000001100100 "
b1100100 J
b1100100 Z
#893
b11000010001000010010000000000001100100 "
#894
b11100010000000111010000000000001011110 "
b1011110 J
b1011110 Z
0q
0r
#896
b11000010001000110110000000000001101101 "
b1101101 J
b1101101 Z
1q
1r
#898
b11000010001000001010000000000001100010 "
b1100010 J
b1100010 Z
#900
b11000010001000111010000000000001101110 "
b1101110 J
b1101110 Z
#902
b11000010001000011010000000000001100110 "
b1100110 J
b1100110 Z
#904
b11000010001000001010000000000001100010 "
b1100010 J
b1100010 Z
#910
b11000010001000001110000000000001100011 "
b1100011 J
b1100011 Z
#913
b11000010001000001110000000000001100111 "
b1100111 J
b1100111 Z
#914
b11000010001000011010000000000001100110 "
b1100110 J
b1100110 Z
#915
b11000010001000011010000000000001011101 "
b1011101 J
b1011101 Z
#916
b11100010000000110110000000000001011101 "
0q
0r
#917
b11000010001000010110000000000001100101 "
b1100101 J
b1100101 Z
1q
1r
#919
b11100010000000111010000000000001011110 "
b1011110 J
b1011110 Z
0q
0r
#921
b11000010001000010110000000000001100101 "
b1100101 J
b1100101 Z
1q
1r
#923
b11100010000000100110000000000001011001 "
b1011001 J
b1011001 Z
0q
0r
#925
b11000010001000000010000000000001100000 "
b1100000 J
b1100000 Z
1q
1r
#927
b11000010001000101110000000000001101011 "
b1101011 J
b1101011 Z
#929
b11000010001000010110000000000001100101 "
b1100101 J
b1100101 Z
#931
b11100010001000000110000000000001110001 "
b1110001 J
b1110001 Z
#933
b11000010001000000010000000000001100000 "
b1100000 J
b1100000 Z
#935
b11100010000000111110000000000001011111 "
b1011111 J
b1011111 Z
0q
0r
#936
b11100010000000111110000000000001100101 "
b1100101 J
b1100101 Z
#937
b11000010001000010110000000000001100101 "
1q
1r
#938
b11100010001000111110000000000001011011 "
b1011011 J
b1011011 Z
#939
b11100010000000101110000000000001011011 "
0q
0r
#940
b11000010001000001110000000000001100011 "
b1100011 J
b1100011 Z
1q
1r
#942
b11000010001000110110000000000001101101 "
b1101101 J
b1101101 Z
#944
b11100010000000010010000000000001010100 "
b1010100 J
b1010100 Z
0q
0r
#946
b11000010001000000010000000000001100000 "
b1100000 J
b1100000 Z
1q
1r
#948
b11100010000000100010000000000001011000 "
b1011000 J
b1011000 Z
0q
0r
#950
b11000010001000010010000000000001100100 "
b1100100 J
b1100100 Z
1q
1r
#952
b11000010001000011010000000000001100110 "
b1100110 J
b1100110 Z
#954
b11000010001000010010000000000001100100 "
b1100100 J
b1100100 Z
#956
b11100010000000010110000000000001010101 "
b1010101 J
b1010101 Z
0q
0r
#958
b11000010001000111010000000000001101110 "
b1101110 J
b1101110 Z
1q
1r
#959
b11000010001000111010000000000001011000 "
b1011000 J
b1011000 Z
#960
b11100010000000100010000000000001011000 "
0q
0r
#961
b11100010000000111110000000000001011111 "
b1011111 J
b1011111 Z
#963
b11100010000000011110000000000001010111 "
b1010111 J
b1010111 Z
#965
b11100010001000101010000000000001111010 "
b1111010 J
b1111010 Z
1q
1r
#967
b11100010000000111010000000000001011110 "
b1011110 J
b1011110 Z
0q
0r
#969
b11000010001000001110000000000001100011 "
b1100011 J
b1100011 Z
1q
1r
#971
b11000010001000000010000000000001100000 "
b1100000 J
b1100000 Z
#975
b11100010000000111010000000000001011110 "
b1011110 J
b1011110 Z
0q
0r
#977
b11100010000000011110000000000001010111 "
b1010111 J
b1010111 Z
#979
b11100010000000111010000000000001011110 "
b1011110 J
b1011110 Z
#981
b11000010001000001110000000000001100011 "
b1100011 J
b1100011 Z
1q
1r
#984
b11000010001000000010000000000001100000 "
b1100000 J
b1100000 Z
#986
b11000010001000010010000000000001100100 "
b1100100 J
b1100100 Z
#988
b11000010001000011010000000000001100110 "
b1100110 J
b1100110 Z
#990
b11100010000000111110000000000001011111 "
b1011111 J
b1011111 Z
0q
0r
#992
b11000010001000100110000000000001101001 "
b1101001 J
b1101001 Z
1q
1r
#994
b11000010001000100010000000000001101000 "
b1101000 J
b1101000 Z
#996
b11000010001000101110000000000001101011 "
b1101011 J
b1101011 Z
#998
b11000010001000100110000000000001101001 "
b1101001 J
b1101001 Z
#1000
b11000010001000111010000000000001101110 "
b1101110 J
b1101110 Z
#1002
b11000010001000001010000000000001100010 "
b1100010 J
b1100010 Z
#1003
b11000010001000001010000000000001100110 "
b1100110 J
b1100110 Z
#1004
b11000010001000011010000000000001100110 "
#1005
b11000010001000100010000000000001101000 "
b1101000 J
b1101000 Z
#1007
b11000010001000100110000000000001101001 "
b1101001 J
b1101001 Z
#1011
b11000010001000110110000000000001101101 "
b1101101 J
b1101101 Z
#1013
b11100010001000000110000000000001110001 "
b1110001 J
b1110001 Z
#1015
b11000010001000100010000000000001101000 "
b1101000 J
b1101000 Z
#1017
b11000010001000010110000000000001100101 "
b1100101 J
b1100101 Z
#1019
b11000010001000101110000000000001101011 "
b1101011 J
b1101011 Z
#1021
b11000010001000111010000000000001101110 "
b1101110 J
b1101110 Z
#1026
b11000010001000111110000000000001101111 "
b1101111 J
b1101111 Z
#1028
b11000010001000110110000000000001101101 "
b1101101 J
b1101101 Z
#1030
b11000010001000111010000000000001101110 "
b1101110 J
b1101110 Z
#1032
b11100010001000011010000000000001110110 "
b1110110 J
b1110110 Z
#1034
b11000010001000110110000000000001101101 "
b1101101 J
b1101101 Z
#1036
b11100010001000100110000000000001111001 "
b1111001 J
b1111001 Z
#1038
b11000010001000111110000000000001101111 "
b1101111 J
b1101111 Z
#1040
b11000010001000101110000000000001101011 "
b1101011 J
b1101011 Z
#1042
b11100010001000000110000000000001110001 "
b1110001 J
b1110001 Z
#1044
b11100010001000001110000000000001110011 "
b1110011 J
b1110011 Z
#1046
b11100010001000010010000000000001110100 "
b1110100 J
b1110100 Z
#1047
b11100010001000010010000000000001110110 "
b1110110 J
b1110110 Z
#1048
b11100010001000011010000000000001110110 "
#1049
b11000010001000111010000000000001101110 "
b1101110 J
b1101110 Z
#1051
b11100010001000000110000000000001110001 "
b1110001 J
b1110001 Z
#1055
b11100010001000101010000000000001111010 "
b1111010 J
b1111010 Z
#1057
b11100010001000100110000000000001111001 "
b1111001 J
b1111001 Z
#1059
b11100010001000011010000000000001110110 "
b1110110 J
b1110110 Z
#1061
b11000001000000000110000000000010000001 "
b10000001 J
b10000001 Z
1b
0q
0r
#1063
b11100010001000100110000000000001111001 "
b1111001 J
b1111001 Z
0b
1q
1r
#1065
b11100010001000111110000000000001111111 "
b1111111 J
b1111111 Z
#1067
b11100010001000011010000000000001110110 "
b1110110 J
b1110110 Z
#1068
b11100010001000111110000000000001111101 "
b1111101 J
b1111101 Z
#1069
b11100010001000110110000000000001111101 "
#1070
b11100010001000101010000000000001111010 "
b1111010 J
b1111010 Z
#1072
b11100010001000100010000000000001111000 "
b1111000 J
b1111000 Z
#1078
b11100010001000100110000000000001111001 "
b1111001 J
b1111001 Z
#1080
b11100010001000101010000000000001111010 "
b1111010 J
b1111010 Z
#1082
b11100010001000111110000000000001111111 "
b1111111 J
b1111111 Z
#1086
b11100010001000110110000000000001111101 "
b1111101 J
b1111101 Z
#1088
b11100010001000100110000000000001111001 "
b1111001 J
b1111001 Z
#1091
b11100010001000110010000000000001111100 "
b1111100 J
b1111100 Z
#1093
b11100010001000110110000000000001111101 "
b1111101 J
b1111101 Z
#1095
b11100010001000011010000000000001110110 "
b1110110 J
b1110110 Z
#1097
b11000001000000000110000000000010000001 "
b10000001 J
b10000001 Z
1b
0q
0r
#1099
b11100010001000011110000000000001110111 "
b1110111 J
b1110111 Z
0b
1q
1r
#1101
b11100010001000111010000000000001111110 "
b1111110 J
b1111110 Z
#1103
b11100010001000000110000000000001110001 "
b1110001 J
b1110001 Z
#1105
b11000010001000011010000000000001100110 "
b1100110 J
b1100110 Z
#1107
b11000010001000010110000000000001100101 "
b1100101 J
b1100101 Z
