kintex_map_dec_video_fifo/kintex_5cam/.Xil/Vivado-17816-DESKTOP-401LVPF/hw_ila_data_1/zip_work/waveform.vcd
$date
        2023-Nov-23 17:03:26
$end
$version
        Vivado v2023.1 (64-bit)
$end
$timescale
        1ps
$end
$scope module dut $end
$var reg 40 " dbg_sig [39:0] $end
$var reg 16 J user_probe_0 [15:0] $end
$var reg 8 Z user_probe_1 [7:0] $end
$var reg 1 b user_probe_7 $end
$var reg 8 c user_probe_2 [15:8] $end
$var reg 1 k user_probe_11 $end
$var reg 1 l user_probe_12 $end
$var reg 1 m user_probe_13 $end
$var reg 1 n user_probe_14_1 $end
$var reg 1 o user_probe_15 $end
$var reg 1 p user_probe_15_1 $end
$var reg 1 q user_probe_27 $end
$var reg 1 r user_probe_27_1 $end
$var reg 1 s _TRIGGER $end
$var reg 1 t _WINDOW $end
$var reg 1 u _GAP $end
$upscope $end
$enddefinitions $end
#0
$dumpvars
b1000000000000000000000000000000000000 "
b0 J
b0 Z
0b
b0 c
0k
0l
0m
0n
0o
0p
0q
0r
0s
1t
0u
$end
#739
b0 "
#984
b1000000000000000000000000000000000000 "
#3432
b0 "
#3677
b1000000000000000000000000000000000000 "
#6125
b0 "
#6370
b1000000000000000000000000000000000000 "
#8819
b0 "
#9063
b1000000000000000000000000000000000000 "
#11512
b0 "
#11756
b1000000000000000000000000000000000000 "
#14205
b0 "
#14449
b1000000000000000000000000000000000000 "
#16898
b0 "
#17142
b1000000000000000000000000000000000000 "
#19591
b0 "
#19836
b1000000000000000000000000000000000000 "
#22284
b0 "
#22529
b1000000000000000000000000000000000000 "
#24977
b0 "
#25222
b1000000000000000000000000000000000000 "
#27670
b0 "
#27915
b1000000000000000000000000000000000000 "
#30363
b0 "
#30608
b1000000000000000000000000000000000000 "
#33056
b0 "
#33301
b1000000000000000000000000000000000000 "
#35749
b0 "
#35994
b1000000000000000000000000000000000000 "
#38443
b0 "
#38687
b1000000000000000000000000000000000000 "
#41136
b0 "
#41380
b1000000000000000000000000000000000000 "
#43829
b0 "
#44073
b1000000000000000000000000000000000000 "
#46522
b0 "
#46766
b1000000000000000000000000000000000000 "
#49215
b0 "
#49459
b1000000000000000000000000000000000000 "
#51908
b0 "
#52153
b1000000000000000000000000000000000000 "
#54601
b0 "
#54846
b1000000000000000000000000000000000000 "
#57294
b0 "
#57539
b1000000000000000000000000000000000000 "
#59987
b0 "
#60232
b1000000000000000000000000000000000000 "
#62680
b0 "
#62925
b1000000000000000000000000000000000000 "
#65373
b0 "
#65618
b1000000000000000000000000000000000000 "
#68067
b0 "
#68311
b1000000000000000000000000000000000000 "
#70760
b0 "
#71004
b1000000000000000000000000000000000000 "
#72825
b0 "
#72856
b1000000000000000000000000000000000000 "
#75304
b0 "
#75518
b10000000000000000000000000000000000000 "
#75549
b11100000000000000010000000000000010000 "
b10000 J
b10000 Z
#75809
b11100000000000000110000000000000010001 "
b10001 J
b10001 Z
#75828
b11100000000000001010000000000000010010 "
b10010 J
b10010 Z
#75842
b11100000000000001110000000000000010011 "
b10011 J
b10011 Z
#75861
b11100000000000010010000000000000010100 "
b10100 J
b10100 Z
#75870
b11100000000000010110000000000000010101 "
b10101 J
b10101 Z
#75886
b11100000000000011010000000000000010110 "
b10110 J
b10110 Z
#75895
b11100000000000011110000000000000010111 "
b10111 J
b10111 Z
#75922
b11100000000000100010000000000000011000 "
b11000 J
b11000 Z
#75937
b11100000000000100110000000000000011001 "
b11001 J
b11001 Z
#75947
b11100000000000101010000000000000011010 "
b11010 J
b11010 Z
#75966
b11100000000000101110000000000000011011 "
b11011 J
b11011 Z
#75980
b11100000000000110010000000000000011100 "
b11100 J
b11100 Z
#75991
b11100000000000110110000000000000011101 "
b11101 J
b11101 Z
#76024
b11100000000000111010000000000000011110 "
b11110 J
b11110 Z
#76041
b11100000000000111110000000000000011111 "
b11111 J
b11111 Z
#76050
b11000000001000000010000000000000100000 "
b100000 J
b100000 Z
1q
1r
#76060
b11000000001000000110000000000000100001 "
b100001 J
b100001 Z
#76083
b11000000001000001010000000000000100010 "
b100010 J
b100010 Z
#76092
b11000000001000001110000000000000100011 "
b100011 J
b100011 Z
#76111
b11000000001000010010000000000000100100 "
b100100 J
b100100 Z
#76136
b11000000001000010110000000000000100101 "
b100101 J
b100101 Z
#76146
b11000000001000011010000000000000100110 "
b100110 J
b100110 Z
#76155
b11000000001000011110000000000000100111 "
b100111 J
b100111 Z
#76165
b11000000001000100010000000000000101000 "
b101000 J
b101000 Z
#76188
b11000000001000100110000000000000101001 "
b101001 J
b101001 Z
#76211
b11000000001000101010000000000000101010 "
b101010 J
b101010 Z
#76222
b11000000001000101110000000000000101011 "
b101011 J
b101011 Z
#76245
b11000000001000110010000000000000101100 "
b101100 J
b101100 Z
#76258
b11000000001000110110000000000000101101 "
b101101 J
b101101 Z
#76270
b11000000001000111010000000000000101110 "
b101110 J
b101110 Z
#76281
b11000000001000111110000000000000101111 "
b101111 J
b101111 Z
#76316
b11100000001000000010000000000000110000 "
b110000 J
b110000 Z
#76325
b11100000001000000110000000000000110001 "
b110001 J
b110001 Z
#76335
b11100000001000001010000000000000110010 "
b110010 J
b110010 Z
#76354
b11100000001000001110000000000000110011 "
b110011 J
b110011 Z
#76369
b11100000001000010010000000000000110100 "
b110100 J
b110100 Z
#76379
b11100000001000010110000000000000110101 "
b110101 J
b110101 Z
#76411
b11100000001000011110000000000000110111 "
b110111 J
b110111 Z
#76412
b11100000001000011010000000000000110110 "
b110110 J
b110110 Z
#76421
b11100000001000011110000000000000110111 "
b110111 J
b110111 Z
#76431
b11100000001000100010000000000000111000 "
b111000 J
b111000 Z
#76440
b11100000001000100110000000000000111001 "
b111001 J
b111001 Z
#76463
b11100000001000101010000000000000111010 "
b111010 J
b111010 Z
#76473
b11100000001000101110000000000000111011 "
b111011 J
b111011 Z
#76492
b11100000001000110010000000000000111100 "
b111100 J
b111100 Z
#76517
b11100000001000110110000000000000111101 "
b111101 J
b111101 Z
#76526
b11100000001000111010000000000000111110 "
b111110 J
b111110 Z
#76536
b11100000001000111110000000000000111111 "
b111111 J
b111111 Z
#76549
b11000010000000000010000000000010000000 "
b10000000 J
b10000000 Z
1b
0q
0r
#76569
b11000010000000000110000000000010000001 "
b10000001 J
b10000001 Z
#76588
b11000010000000001010000000000010000010 "
b10000010 J
b10000010 Z
#76601
b11000010000000001110000000000010000011 "
b10000011 J
b10000011 Z
#76620
b11000010000000010010000000000010000100 "
b10000100 J
b10000100 Z
#76630
b11000010000000010110000000000010000101 "
b10000101 J
b10000101 Z
#76645
b11000010000000011010000000000010000110 "
b10000110 J
b10000110 Z
#76655
b11000010000000011110000000000010000111 "
b10000111 J
b10000111 Z
#76683
b11000010000000100010000000000010001101 "
b10001101 J
b10001101 Z
#76684
b11000010000000100010000000000010001000 "
b10001000 J
b10001000 Z
#76697
b11000010000000100110000000000010001001 "
b10001001 J
b10001001 Z
#76706
b11000010000000101010000000000010001010 "
b10001010 J
b10001010 Z
#76726
b11000010000000101110000000000010001011 "
b10001011 J
b10001011 Z
#76741
b11000010000000110010000000000010001100 "
b10001100 J
b10001100 Z
#76750
b11000010000000110110000000000010001101 "
b10001101 J
b10001101 Z
#76779
b11000010000000111010000000000010001110 "
b10001110 J
b10001110 Z
#76792
b11000010000000111110000000000010001111 "
b10001111 J
b10001111 Z
#76802
b11100010000000000010000000000010010000 "
b10010000 J
b10010000 Z
#76811
b11100010000000000110000000000010010001 "
b10010001 J
b10010001 Z
#76834
b11100010000000001010000000000010010010 "
b10010010 J
b10010010 Z
#76844
b11100010000000001110000000000010010011 "
b10010011 J
b10010011 Z
#76863
b11100010000000010010000000000010010100 "
b10010100 J
b10010100 Z
#76888
b11100010000000010110000000000010010101 "
b10010101 J
b10010101 Z
#76897
b11100010000000011110000000000010010111 "
b10010111 J
b10010111 Z
#76907
b11100010000000100010000000000010011000 "
b10011000 J
b10011000 Z
#76916
b11100010000000100110000000000010011001 "
b10011001 J
b10011001 Z
#76930
b11100010000000101010000000000010011010 "
b10011010 J
b10011010 Z
#76939
b11100010000000101110000000000010011011 "
b10011011 J
b10011011 Z
#76949
b11100010000000110110000000000010011101 "
b10011101 J
b10011101 Z
#76974
b11100010000000111010000000000010011110 "
b10011110 J
b10011110 Z
#76983
b11100010000000111110000000000010011111 "
b10011111 J
b10011111 Z
#76991
b11000010001000000010000000000010100000 "
b10100000 J
b10100000 Z
1q
1r
#77000
b11000010001000001010000000000010100000 "
#77001
b11000010001000001010000000000010100010 "
b10100010 J
b10100010 Z
#77010
b11000010001000001110000000000010100011 "
b10100011 J
b10100011 Z
#77025
b11000010001000010010000000000010100100 "
b10100100 J
b10100100 Z
#77035
b11000010001000010110000000000010100101 "
b10100101 J
b10100101 Z
#77044
b11000010001000011110000000000010100111 "
b10100111 J
b10100111 Z
#77045
b11000010001000011010000000000010100110 "
b10100110 J
b10100110 Z
#77054
b11000010001000100010000000000010101000 "
b10101000 J
b10101000 Z
#77067
b11000010001000100110000000000010101000 "
#77068
b11000010001000100110000000000010101001 "
b10101001 J
b10101001 Z
#77077
b11000010001000101110000000000010101011 "
b10101011 J
b10101011 Z
#77096
b11000010001000110110000000000010101101 "
b10101101 J
b10101101 Z
#77112
b11000010001000111010000000000010101110 "
b10101110 J
b10101110 Z
#77121
b11000010001000111110000000000010101111 "
b10101111 J
b10101111 Z
#77131
b11100010001000000110000000000010110001 "
b10110001 J
b10110001 Z
#77150
b11100010001000001110000000000010110011 "
b10110011 J
b10110011 Z
#77163
b11100010001000010010000000000010110100 "
b10110100 J
b10110100 Z
#77173
b11100010001000011010000000000010110110 "
b10110110 J
b10110110 Z
#77182
b11100010001000011110000000000010110111 "
b10110111 J
b10110111 Z
#77192
b11100010001000100010000000000010111000 "
b10111000 J
b10111000 Z
#77205
b11100010001000100110000000000010111001 "
b10111001 J
b10111001 Z
#77215
b11100010001000101010000000000010111010 "
b10111010 J
b10111010 Z
#77225
b11100010001000110010000000000010111100 "
b10111100 J
b10111100 Z
#77238
b11100010001000110110000000000010111101 "
b10111101 J
b10111101 Z
#77249
b11100010001000111110000000000010111111 "
b10111111 J
b10111111 Z
#77250
b11100010001000111010000000000010111110 "
b10111110 J
b10111110 Z
#77261
b11100010001000111110000000000010111111 "
b10111111 J
b10111111 Z
#77272
b11100001000000100110000000000001010101 "
b1010101 J
b1010101 Z
0b
0q
0r
#77273
b11000001000000000110000000000001000001 "
b1000001 J
b1000001 Z
#77284
b11000001000000001010000000000001000010 "
b1000010 J
b1000010 Z
#77295
b11000001000000010010000000000001000100 "
b1000100 J
b1000100 Z
#77320
b11000001000000010110000000000001000101 "
b1000101 J
b1000101 Z
#77330
b11000001000000011110000000000001000111 "
b1000111 J
b1000111 Z
#77340
b11000001000000100010000000000001001000 "
b1001000 J
b1001000 Z
#77355
b11000001000000101010000000000001001010 "
b1001010 J
b1001010 Z
#77374
b11000001000000110010000000000001001100 "
b1001100 J
b1001100 Z
#77384
b11000001000000110110000000000001001101 "
b1001101 J
b1001101 Z
#77397
b11000001000000111110000000000001001111 "
b1001111 J
b1001111 Z
#77406
b11100001000000000010000000000001010000 "
b1010000 J
b1010000 Z
#77425
b11100001000000001010000000000001010010 "
b1010010 J
b1010010 Z
#77439
b11100001000000001110000000000001010011 "
b1010011 J
b1010011 Z
#77448
b11100001000000010110000000000001010101 "
b1010101 J
b1010101 Z
#77458
b11100001000000011010000000000001010110 "
b1010110 J
b1010110 Z
#77468
b11100001000000011110000000000001010111 "
b1010111 J
b1010111 Z
#77477
b11100001000000100010000000000001011000 "
b1011000 J
b1011000 Z
#77492
b11100001000000101010000000000001011010 "
b1011010 J
b1011010 Z
#77502
b11100001000000101110000000000001011011 "
b1011011 J
b1011011 Z
#77511
b11100001000000110010000000000001011100 "
b1011100 J
b1011100 Z
#77521
b11100001000000110110000000000001011101 "
b1011101 J
b1011101 Z
#77534
b11100001000000111010000000000001011110 "
b1011110 J
b1011110 Z
#77544
b11000001001000000010000000000001100000 "
b1100000 J
b1100000 Z
1q
1r
#77553
b11000001001000000110000000000001100001 "
b1100001 J
b1100001 Z
#77563
b11000001001000001010000000000001100010 "
b1100010 J
b1100010 Z
#77573
b11000001001000001110000000000001100011 "
b1100011 J
b1100011 Z
#77588
b11000001001000010110000000000001100101 "
b1100101 J
b1100101 Z
#77595
b11000001001000011110000000000001100111 "
b1100111 J
b1100111 Z
#77596
b11000001001000011010000000000001100110 "
b1100110 J
b1100110 Z
#77605
b11000001001000011110000000000001100111 "
b1100111 J
b1100111 Z
#77615
b11000001001000100010000000000001101000 "
b1101000 J
b1101000 Z
#77630
b11000001001000100110000000000001101001 "
b1101001 J
b1101001 Z
#77639
b11000001001000101010000000000001101010 "
b1101010 J
b1101010 Z
#77649
b11000001001000101110000000000001101011 "
b1101011 J
b1101011 Z
#77658
b11000001001000111110000000000001101011 "
#77659
b11000001001000110010000000000001101100 "
b1101100 J
b1101100 Z
#77668
b11000001001000111010000000000001101110 "
b1101110 J
b1101110 Z
#77691
b11000001001000111110000000000001101111 "
b1101111 J
b1101111 Z
#77701
b11100001001000000110000000000001110001 "
b1110001 J
b1110001 Z
#77710
b11100001001000001010000000000001110010 "
b1110010 J
b1110010 Z
#77725
b11100001001000001110000000000001110011 "
b1110011 J
b1110011 Z
#77735
b11100001001000010010000000000001110100 "
b1110100 J
b1110100 Z
#77745
b11100001001000010110000000000001110101 "
b1110101 J
b1110101 Z
#77754
b11100001001000011010000000000001110110 "
b1110110 J
b1110110 Z
#77768
b11100001001000011110000000000001110111 "
b1110111 J
b1110111 Z
#77777
b11100001001000100110000000000001111001 "
b1111001 J
b1111001 Z
#77787
b11100001001000101010000000000001111010 "
b1111010 J
b1111010 Z
#77806
b11100001001000110010000000000001111100 "
b1111100 J
b1111100 Z
#77819
b11100001001000110110000000000001111101 "
b1111101 J
b1111101 Z
#77829
b11100001001000111010000000000001111110 "
b1111110 J
b1111110 Z
#77838
b11100011001000111010000000000011111110 "
b11111110 J
b11111110 Z
1b
#77839
b11000011000000000010000000000011000000 "
b11000000 J
b11000000 Z
0q
0r
#77863
b11000011000000000110000000000011000001 "
b11000001 J
b11000001 Z
#77873
b11000011000000001110000000000011000011 "
b11000011 J
b11000011 Z
#77883
b11000011000000010010000000000011000100 "
b11000100 J
b11000100 Z
#77892
b11000011000000010110000000000011000101 "
b11000101 J
b11000101 Z
#77902
b11000011000000011010000000000011000110 "
b11000110 J
b11000110 Z
#77915
b11000011000000011110000000000011000111 "
b11000111 J
b11000111 Z
#77925
b11000011000000100010000000000011001000 "
b11001000 J
b11001000 Z
#77934
b11000011000000101010000000000011001010 "
b11001010 J
b11001010 Z
#77944
b11000011000000101110000000000011001011 "
b11001011 J
b11001011 Z
#77959
b11000011000000110010000000000011001100 "
b11001100 J
b11001100 Z
#77969
b11000011000000110110000000000011001101 "
b11001101 J
b11001101 Z
#77978
b11000011000000111010000000000011001110 "
b11001110 J
b11001110 Z
#77988
b11000011000000111110000000000011001111 "
b11001111 J
b11001111 Z
#77997
b10000000000000000000000000000000000000 "
b0 J
b0 Z
0b
#78242
b11100000000000000010000000000000010000 "
b10000 J
b10000 Z
#78502
b11100000000000000110000000000000010001 "
b10001 J
b10001 Z
#78521
b11100000000000001010000000000000010010 "
b10010 J
b10010 Z
#78535
b11100000000000001110000000000000010011 "
b10011 J
b10011 Z
#78554
b11100000000000010010000000000000010100 "
b10100 J
b10100 Z
#78563
b11100000000000010110000000000000010101 "
b10101 J
b10101 Z
#78579
b11100000000000011010000000000000010110 "
b10110 J
b10110 Z
#78588
b11100000000000011110000000000000010111 "
b10111 J
b10111 Z
#78615
b11100000000000100010000000000000011000 "
b11000 J
b11000 Z
#78630
b11100000000000100110000000000000011001 "
b11001 J
b11001 Z
#78640
b11100000000000101010000000000000011010 "
b11010 J
b11010 Z
#78659
b11100000000000101110000000000000011011 "
b11011 J
b11011 Z
#78673
b11100000000000110010000000000000011100 "
b11100 J
b11100 Z
#78684
b11100000000000110110000000000000011101 "
b11101 J
b11101 Z
#78717
b11100000000000111010000000000000011110 "
b11110 J
b11110 Z
#78734
b11100000000000111110000000000000011111 "
b11111 J
b11111 Z
#78743
b11000000001000000010000000000000100000 "
b100000 J
b100000 Z
1q
1r
#78753
b11000000001000000110000000000000100001 "
b100001 J
b100001 Z
#78776
b11000000001000001010000000000000100010 "
b100010 J
b100010 Z
#78785
b11000000001000001110000000000000100011 "
b100011 J
b100011 Z
#78805
b11000000001000010010000000000000100100 "
b100100 J
b100100 Z
#78829
b11000000001000010110000000000000100101 "
b100101 J
b100101 Z
#78839
b11000000001000011010000000000000100110 "
b100110 J
b100110 Z
#78848
b11000000001000011110000000000000100111 "
b100111 J
b100111 Z
#78858
b11000000001000100010000000000000101000 "
b101000 J
b101000 Z
#78881
b11000000001000100110000000000000101001 "
b101001 J
b101001 Z
#78904
b11000000001000101010000000000000101010 "
b101010 J
b101010 Z
#78915
b11000000001000101110000000000000101011 "
b101011 J
b101011 Z
#78938
b11000000001000110010000000000000101100 "
b101100 J
b101100 Z
#78952
b11000000001000110110000000000000101101 "
b101101 J
b101101 Z
#78963
b11000000001000111010000000000000101110 "
b101110 J
b101110 Z
#78975
b11000000001000111110000000000000101111 "
b101111 J
b101111 Z
#79009
b11100000001000000010000000000000110000 "
b110000 J
b110000 Z
#79018
b11100000001000000110000000000000110001 "
b110001 J
b110001 Z
#79028
b11100000001000001010000000000000110010 "
b110010 J
b110010 Z
#79047
b11100000001000001110000000000000110011 "
b110011 J
b110011 Z
#79062
b11100000001000010010000000000000110100 "
b110100 J
b110100 Z
#79072
b11100000001000010110000000000000110101 "
b110101 J
b110101 Z
#79105
b11100000001000011010000000000000110110 "
b110110 J
b110110 Z
#79114
b11100000001000011110000000000000110111 "
b110111 J
b110111 Z
#79124
b11100000001000100010000000000000111000 "
b111000 J
b111000 Z
#79133
b11100000001000100110000000000000111001 "
b111001 J
b111001 Z
#79156
b11100000001000101010000000000000111010 "
b111010 J
b111010 Z
#79166
b11100000001000101110000000000000111011 "
b111011 J
b111011 Z
#79185
b11100000001000110010000000000000111100 "
b111100 J
b111100 Z
#79210
b11100000001000110110000000000000111101 "
b111101 J
b111101 Z
#79219
b11100000001000111110000000000000111111 "
b111111 J
b111111 Z
#79220
b11100000001000111010000000000000111110 "
b111110 J
b111110 Z
#79229
b11100000001000111110000000000000111111 "
b111111 J
b111111 Z
#79242
b11100010000000000010000000000010010101 "
b10010101 J
b10010101 Z
1b
0q
0r
#79243
b11000010000000000010000000000010000000 "
b10000000 J
b10000000 Z
#79262
b11000010000000000110000000000010000001 "
b10000001 J
b10000001 Z
#79281
b11000010000000001010000000000010000010 "
b10000010 J
b10000010 Z
#79294
b11000010000000001110000000000010000011 "
b10000011 J
b10000011 Z
#79313
b11000010000000010010000000000010000100 "
b10000100 J
b10000100 Z
#79323
b11000010000000010110000000000010000101 "
b10000101 J
b10000101 Z
#79338
b11000010000000011010000000000010000110 "
b10000110 J
b10000110 Z
#79348
b11000010000000011110000000000010000111 "
b10000111 J
b10000111 Z
#79377
b11000010000000100010000000000010001000 "
b10001000 J
b10001000 Z
#79390
b11000010000000100110000000000010001001 "
b10001001 J
b10001001 Z
#79400
b11000010000000101010000000000010001010 "
b10001010 J
b10001010 Z
#79419
b11000010000000101110000000000010001011 "
b10001011 J
b10001011 Z
#79434
b11000010000000110010000000000010001100 "
b10001100 J
b10001100 Z
#79443
b11000010000000110110000000000010001101 "
b10001101 J
b10001101 Z
#79472
b11000010000000111010000000000010001110 "
b10001110 J
b10001110 Z
#79485
b11000010000000111110000000000010001111 "
b10001111 J
b10001111 Z
#79495
b11100010000000000010000000000010010000 "
b10010000 J
b10010000 Z
#79505
b11100010000000000110000000000010010001 "
b10010001 J
b10010001 Z
#79527
b11100010000000001010000000000010010010 "
b10010010 J
b10010010 Z
#79537
b11100010000000001110000000000010010011 "
b10010011 J
b10010011 Z
#79556
b11100010000000010010000000000010010100 "
b10010100 J
b10010100 Z
#79581
b11100010000000010110000000000010010101 "
b10010101 J
b10010101 Z
#79590
b11100010000000011110000000000010010111 "
b10010111 J
b10010111 Z
#79600
b11100010000000100010000000000010011000 "
b10011000 J
b10011000 Z
#79610
b11100010000000100110000000000010011001 "
b10011001 J
b10011001 Z
#79623
b11100010000000101010000000000010011010 "
b10011010 J
b10011010 Z
#79632
b11100010000000101110000000000010011011 "
b10011011 J
b10011011 Z
#79642
b11100010000000110110000000000010011101 "
b10011101 J
b10011101 Z
#79667
b11100010000000111010000000000010011110 "
b10011110 J
b10011110 Z
#79676
b11100010000000111110000000000010011111 "
b10011111 J
b10011111 Z
#79684
b11000010001000000010000000000010100000 "
b10100000 J
b10100000 Z
1q
1r
#79694
b11000010001000001010000000000010100010 "
b10100010 J
b10100010 Z
#79703
b11000010001000001110000000000010100011 "
b10100011 J
b10100011 Z
#79718
b11000010001000010010000000000010100100 "
b10100100 J
b10100100 Z
#79728
b11000010001000010110000000000010100101 "
b10100101 J
b10100101 Z
#79738
b11000010001000011010000000000010100110 "
b10100110 J
b10100110 Z
#79747
b11000010001000100010000000000010101000 "
b10101000 J
b10101000 Z
#79761
b11000010001000100110000000000010101001 "
b10101001 J
b10101001 Z
#79770
b11000010001000101110000000000010101011 "
b10101011 J
b10101011 Z
#79789
b11000010001000110110000000000010101101 "
b10101101 J
b10101101 Z
#79805
b11000010001000111010000000000010101110 "
b10101110 J
b10101110 Z
#79814
b11000010001000111110000000000010101111 "
b10101111 J
b10101111 Z
#79824
b11100010001000000110000000000010110001 "
b10110001 J
b10110001 Z
#79843
b11100010001000001110000000000010110011 "
b10110011 J
b10110011 Z
#79856
b11100010001000010010000000000010110100 "
b10110100 J
b10110100 Z
#79866
b11100010001000011010000000000010110110 "
b10110110 J
b10110110 Z
#79876
b11100010001000011110000000000010110111 "
b10110111 J
b10110111 Z
#79885
b11100010001000100010000000000010111000 "
b10111000 J
b10111000 Z
#79899
b11100010001000100110000000000010111001 "
b10111001 J
b10111001 Z
#79908
b11100010001000101010000000000010111010 "
b10111010 J
b10111010 Z
#79918
b11100010001000110010000000000010111100 "
b10111100 J
b10111100 Z
#79931
b11100010001000110110000000000010111101 "
b10111101 J
b10111101 Z
#79943
b11100010001000111010000000000010111110 "
b10111110 J
b10111110 Z
#79954
b11100010001000111110000000000010111111 "
b10111111 J
b10111111 Z
#79966
b11000001000000000110000000000001000001 "
b1000001 J
b1000001 Z
0b
0q
0r
#79977
b11000001000000001010000000000001000010 "
b1000010 J
b1000010 Z
#79989
b11000001000000010010000000000001000100 "
b1000100 J
b1000100 Z
#80013
b11000001000000010110000000000001000101 "
b1000101 J
b1000101 Z
#80023
b11000001000000011110000000000001000111 "
b1000111 J
b1000111 Z
#80033
b11000001000000100010000000000001001000 "
b1001000 J
b1001000 Z
#80048
b11000001000000101010000000000001001010 "
b1001010 J
b1001010 Z
#80067
b11000001000000110010000000000001001100 "
b1001100 J
b1001100 Z
#80077
b11000001000000110110000000000001001101 "
b1001101 J
b1001101 Z
#80090
b11000001000000111110000000000001001111 "
b1001111 J
b1001111 Z
#80100
b11100001000000000010000000000001010000 "
b1010000 J
b1010000 Z
#80119
b11100001000000001010000000000001010010 "
b1010010 J
b1010010 Z
#80132
b11100001000000001110000000000001010011 "
b1010011 J
b1010011 Z
#80142
b11100001000000010110000000000001010101 "
b1010101 J
b1010101 Z
#80151
b11100001000000011010000000000001010110 "
b1010110 J
b1010110 Z
#80161
b11100001000000011110000000000001010111 "
b1010111 J
b1010111 Z
#80170
b11100001000000100010000000000001011000 "
b1011000 J
b1011000 Z
#80185
b11100001000000101010000000000001011010 "
b1011010 J
b1011010 Z
#80195
b11100001000000101110000000000001011011 "
b1011011 J
b1011011 Z
#80205
b11100001000000110010000000000001011100 "
b1011100 J
b1011100 Z
#80214
b11100001000000110110000000000001011101 "
b1011101 J
b1011101 Z
#80227
b11100001000000111010000000000001011110 "
b1011110 J
b1011110 Z
#80237
b11000001001000000010000000000001100000 "
b1100000 J
b1100000 Z
1q
1r
#80247
b11000001001000000110000000000001100001 "
b1100001 J
b1100001 Z
#80256
b11000001001000001010000000000001100010 "
b1100010 J
b1100010 Z
#80266
b11000001001000001110000000000001100011 "
b1100011 J
b1100011 Z
#80281
b11000001001000010110000000000001100101 "
b1100101 J
b1100101 Z
#80289
b11000001001000011010000000000001100110 "
b1100110 J
b1100110 Z
#80298
b11000001001000011110000000000001100111 "
b1100111 J
b1100111 Z
#80308
b11000001001000100010000000000001101000 "
b1101000 J
b1101000 Z
#80323
b11000001001000100110000000000001101001 "
b1101001 J
b1101001 Z
#80332
b11000001001000101110000000000001101001 "
#80333
b11000001001000101010000000000001101010 "
b1101010 J
b1101010 Z
#80342
b11000001001000101110000000000001101011 "
b1101011 J
b1101011 Z
#80352
b11000001001000110010000000000001101100 "
b1101100 J
b1101100 Z
#80361
b11000001001000111010000000000001101110 "
b1101110 J
b1101110 Z
#80384
b11000001001000111110000000000001101111 "
b1101111 J
b1101111 Z
#80394
b11100001001000000110000000000001110001 "
b1110001 J
b1110001 Z
#80403
b11100001001000001010000000000001110010 "
b1110010 J
b1110010 Z
#80419
b11100001001000001110000000000001110011 "
b1110011 J
b1110011 Z
#80428
b11100001001000010010000000000001110100 "
b1110100 J
b1110100 Z
#80438
b11100001001000010110000000000001110101 "
b1110101 J
b1110101 Z
#80447
b11100001001000011010000000000001110110 "
b1110110 J
b1110110 Z
#80461
b11100001001000011110000000000001110111 "
b1110111 J
b1110111 Z
#80470
b11100001001000100110000000000001111001 "
b1111001 J
b1111001 Z
#80480
b11100001001000101010000000000001111010 "
b1111010 J
b1111010 Z
#80499
b11100001001000110010000000000001111100 "
b1111100 J
b1111100 Z
#80512
b11100001001000110110000000000001111101 "
b1111101 J
b1111101 Z
#80522
b11100001001000111010000000000001111110 "
b1111110 J
b1111110 Z
#80532
b11000011000000000010000000000011000000 "
b11000000 J
b11000000 Z
1b
0q
0r
#80556
b11000011000000000110000000000011000001 "
b11000001 J
b11000001 Z
#80566
b11000011000000001110000000000011000011 "
b11000011 J
b11000011 Z
#80576
b11000011000000010010000000000011000100 "
b11000100 J
b11000100 Z
#80585
b11000011000000010110000000000011000101 "
b11000101 J
b11000101 Z
#80595
b11000011000000011010000000000011000110 "
b11000110 J
b11000110 Z
#80608
b11000011000000011110000000000011000111 "
b11000111 J
b11000111 Z
#80618
b11000011000000100010000000000011001000 "
b11001000 J
b11001000 Z
#80627
b11000011000000101010000000000011001010 "
b11001010 J
b11001010 Z
#80637
b11000011000000101110000000000011001011 "
b11001011 J
b11001011 Z
#80652
b11000011000000110010000000000011001100 "
b11001100 J
b11001100 Z
#80662
b11000011000000110110000000000011001101 "
b11001101 J
b11001101 Z
#80671
b11000011000000111010000000000011001110 "
b11001110 J
b11001110 Z
#80681
b11000011000000111110000000000011001111 "
b11001111 J
b11001111 Z
#80691
b10000000000000000000000000000000000000 "
b0 J
b0 Z
0b
#80935
b11100000000000000010000000000000010000 "
b10000 J
b10000 Z
#81195
b11100000000000000110000000000000010001 "
b10001 J
b10001 Z
#81214
b11100000000000001010000000000000010010 "
b10010 J
b10010 Z
#81228
b11100000000000001110000000000000010011 "
b10011 J
b10011 Z
#81247
b11100000000000010010000000000000010100 "
b10100 J
b10100 Z
#81257
b11100000000000010110000000000000010101 "
b10101 J
b10101 Z
#81272
b11100000000000011010000000000000010110 "
b10110 J
b10110 Z
#81281
b11100000000000011110000000000000010111 "
b10111 J
b10111 Z
#81308
b11100000000000100010000000000000011000 "
b11000 J
b11000 Z
#81324
b11100000000000100110000000000000011001 "
b11001 J
b11001 Z
#81333
b11100000000000101010000000000000011010 "
b11010 J
b11010 Z
#81352
b11100000000000101110000000000000011011 "
b11011 J
b11011 Z
#81366
b11100000000000110010000000000000011100 "
b11100 J
b11100 Z
#81377
b11100000000000110110000000000000011101 "
b11101 J
b11101 Z
#81410
b11100000000000111010000000000000011110 "
b11110 J
b11110 Z
#81427
b11100000000000111110000000000000011111 "
b11111 J
b11111 Z
#81436
b11100000001000110110000000000000111111 "
b111111 J
b111111 Z
1q
1r
#81437
b11000000001000000010000000000000100000 "
b100000 J
b100000 Z
#81446
b11000000001000000110000000000000100001 "
b100001 J
b100001 Z
#81469
b11000000001000001010000000000000100010 "
b100010 J
b100010 Z
#81479
b11000000001000001110000000000000100011 "
b100011 J
b100011 Z
#81498
b11000000001000010010000000000000100100 "
b100100 J
b100100 Z
#81522
b11000000001000010110000000000000100101 "
b100101 J
b100101 Z
#81532
b11000000001000011010000000000000100110 "
b100110 J
b100110 Z
#81542
b11000000001000011110000000000000100111 "
b100111 J
b100111 Z
#81551
b11000000001000100010000000000000101000 "
b101000 J
b101000 Z
#81574
b11000000001000100110000000000000101001 "
b101001 J
b101001 Z
#81597
b11000000001000101010000000000000101010 "
b101010 J
b101010 Z
#81608
b11000000001000101110000000000000101011 "
b101011 J
b101011 Z
#81631
b11000000001000110010000000000000101100 "
b101100 J
b101100 Z
#81645
b11000000001000110110000000000000101101 "
b101101 J
b101101 Z
#81656
b11000000001000111010000000000000101110 "
b101110 J
b101110 Z
#81668
b11000000001000111110000000000000101111 "
b101111 J
b101111 Z
#81702
b11100000001000000010000000000000110000 "
b110000 J
b110000 Z
#81712
b11100000001000000110000000000000110001 "
b110001 J
b110001 Z
#81721
b11100000001000001010000000000000110010 "
b110010 J
b110010 Z
#81740
b11100000001000001110000000000000110011 "
b110011 J
b110011 Z
#81755
b11100000001000011110000000000000110011 "
#81756
b11100000001000010010000000000000110100 "
b110100 J
b110100 Z
#81765
b11100000001000010110000000000000110101 "
b110101 J
b110101 Z
#81798
b11100000001000011010000000000000110110 "
b110110 J
b110110 Z
