kintex_map_dec_video_fifo/kintex_5cam/.Xil/Vivado-11764-DESKTOP-401LVPF/hw_ila_data_1/zip_work/waveform.vcd
$date
        2023-Nov-23 16:49:05
$end
$version
        Vivado v2023.1 (64-bit)
$end
$timescale
        1ps
$end
$scope module dut $end
$var reg 40 " dbg_sig [39:0] $end
$var reg 16 J user_probe_0 [15:0] $end
$var reg 8 Z user_probe_1 [7:0] $end
$var reg 1 b user_probe_7 $end
$var reg 8 c user_probe_2 [15:8] $end
$var reg 1 k user_probe_11 $end
$var reg 1 l user_probe_12 $end
$var reg 1 m user_probe_13 $end
$var reg 1 n user_probe_14_1 $end
$var reg 1 o user_probe_15 $end
$var reg 1 p user_probe_15_1 $end
$var reg 1 q user_probe_27 $end
$var reg 1 r user_probe_27_1 $end
$var reg 1 s _TRIGGER $end
$var reg 1 t _WINDOW $end
$var reg 1 u _GAP $end
$upscope $end
$enddefinitions $end
#0
$dumpvars
b10000 "
b10000 J
b10000 Z
0b
b0 c
0k
0l
0m
0n
0o
0p
0q
0r
0s
1t
0u
$end
#140
b10001 "
b10001 J
b10001 Z
#165
b10010 "
b10010 J
b10010 Z
#174
b10011 "
b10011 J
b10011 Z
#194
b10100 "
b10100 J
b10100 Z
#207
b10101 "
b10101 J
b10101 Z
#216
b10111 "
b10111 J
b10111 Z
#217
b10110 "
b10110 J
b10110 Z
#226
b10111 "
b10111 J
b10111 Z
#260
b11000 "
b11000 J
b11000 Z
#270
b11001 "
b11001 J
b11001 Z
#280
b11010 "
b11010 J
b11010 Z
#302
b11011 "
b11011 J
b11011 Z
#312
b11100 "
b11100 J
b11100 Z
#322
b11101 "
b11101 J
b11101 Z
#356
b11110 "
b11110 J
b11110 Z
#366
b11111 "
b11111 J
b11111 Z
#375
b100000 "
b100000 J
b100000 Z
#385
b100001 "
b100001 J
b100001 Z
#408
b100010 "
b100010 J
b100010 Z
#417
b100011 "
b100011 J
b100011 Z
#442
b100100 "
b100100 J
b100100 Z
#465
b100101 "
b100101 J
b100101 Z
#477
b100110 "
b100110 J
b100110 Z
#488
b100111 "
b100111 J
b100111 Z
#500
b101000 "
b101000 J
b101000 Z
#523
b101001 "
b101001 J
b101001 Z
#548
b101010 "
b101010 J
b101010 Z
#557
b101011 "
b101011 J
b101011 Z
#576
b101100 "
b101100 J
b101100 Z
#590
b101101 "
b101101 J
b101101 Z
#599
b101110 "
b101110 J
b101110 Z
#609
b101111 "
b101111 J
b101111 Z
#643
b110000 "
b110000 J
b110000 Z
#653
b110001 "
b110001 J
b110001 Z
#662
b110011 "
b110011 J
b110011 Z
#663
b110010 "
b110010 J
b110010 Z
#685
b110011 "
b110011 J
b110011 Z
#695
b110100 "
b110100 J
b110100 Z
#704
b110101 "
b110101 J
b110101 Z
#739
b110110 "
b110110 J
b110110 Z
#748
b110111 "
b110111 J
b110111 Z
#758
b111000 "
b111000 J
b111000 Z
#767
b111001 "
b111001 J
b111001 Z
#790
b111010 "
b111010 J
b111010 Z
#800
b111011 "
b111011 J
b111011 Z
#825
b111100 "
b111100 J
b111100 Z
#844
b111101 "
b111101 J
b111101 Z
#853
b111110 "
b111110 J
b111110 Z
#867
b111111 "
b111111 J
b111111 Z
#876
b10000000 "
b10000000 J
b10000000 Z
1b
#895
b10000001 "
b10000001 J
b10000001 Z
#920
b10000010 "
b10000010 J
b10000010 Z
#930
b10000011 "
b10000011 J
b10000011 Z
#949
b10000100 "
b10000100 J
b10000100 Z
#962
b10000101 "
b10000101 J
b10000101 Z
#972
b10000110 "
b10000110 J
b10000110 Z
#981
b10000111 "
b10000111 J
b10000111 Z
#1016
b10001000 "
b10001000 J
b10001000 Z
#1025
b10001001 "
b10001001 J
b10001001 Z
#1035
b10001010 "
b10001010 J
b10001010 Z
#1058
b10001011 "
b10001011 J
b10001011 Z
#1068
b10001100 "
b10001100 J
b10001100 Z
#1077
b10001101 "
b10001101 J
b10001101 Z
#1112
b10001110 "
b10001110 J
b10001110 Z
#1121
b10001111 "
b10001111 J
b10001111 Z
#1131
b10010000 "
b10010000 J
b10010000 Z
#1140
b10010001 "
b10010001 J
b10010001 Z
#1163
b10010010 "
b10010010 J
b10010010 Z
#1173
b10010011 "
b10010011 J
b10010011 Z
#1198
b10010100 "
b10010100 J
b10010100 Z
#1217
b10010101 "
b10010101 J
b10010101 Z
#1227
b10010111 "
b10010111 J
b10010111 Z
#1236
b10011000 "
b10011000 J
b10011000 Z
#1250
b10011001 "
b10011001 J
b10011001 Z
#1259
b10011010 "
b10011010 J
b10011010 Z
#1269
b10011011 "
b10011011 J
b10011011 Z
#1294
b10011101 "
b10011101 J
b10011101 Z
#1303
b10011110 "
b10011110 J
b10011110 Z
#1313
b10011111 "
b10011111 J
b10011111 Z
#1322
b10100000 "
b10100000 J
b10100000 Z
#1332
b10100010 "
b10100010 J
b10100010 Z
#1345
b10100011 "
b10100011 J
b10100011 Z
#1355
b10100100 "
b10100100 J
b10100100 Z
#1364
b10100101 "
b10100101 J
b10100101 Z
#1374
b10100110 "
b10100110 J
b10100110 Z
#1389
b10101000 "
b10101000 J
b10101000 Z
#1399
b10101001 "
b10101001 J
b10101001 Z
#1408
b10101011 "
b10101011 J
b10101011 Z
#1431
b10101101 "
b10101101 J
b10101101 Z
#1441
b10101110 "
b10101110 J
b10101110 Z
#1450
b10101111 "
b10101111 J
b10101111 Z
#1460
b10110001 "
b10110001 J
b10110001 Z
#1485
b10110011 "
b10110011 J
b10110011 Z
#1494
b10110100 "
b10110100 J
b10110100 Z
#1504
b10110110 "
b10110110 J
b10110110 Z
#1515
b10110111 "
b10110111 J
b10110111 Z
#1527
b10111000 "
b10111000 J
b10111000 Z
#1538
b10111001 "
b10111001 J
b10111001 Z
#1550
b10111010 "
b10111010 J
b10111010 Z
#1563
b10111100 "
b10111100 J
b10111100 Z
#1574
b10111101 "
b10111101 J
b10111101 Z
#1586
b10111110 "
b10111110 J
b10111110 Z
#1597
b10111111 "
b10111111 J
b10111111 Z
#1609
b1000001 "
b1000001 J
b1000001 Z
0b
#1620
b1000010 "
b1000010 J
b1000010 Z
#1632
b1000100 "
b1000100 J
b1000100 Z
#1651
b1000101 "
b1000101 J
b1000101 Z
#1660
b1000111 "
b1000111 J
b1000111 Z
#1676
b1001000 "
b1001000 J
b1001000 Z
#1685
b1001010 "
b1001010 J
b1001010 Z
#1704
b1001100 "
b1001100 J
b1001100 Z
#1718
b1001101 "
b1001101 J
b1001101 Z
#1727
b1001111 "
b1001111 J
b1001111 Z
#1737
b1010000 "
b1010000 J
b1010000 Z
#1762
b1010010 "
b1010010 J
b1010010 Z
#1772
b1010011 "
b1010011 J
b1010011 Z
#1781
b1010101 "
b1010101 J
b1010101 Z
#1791
b1010110 "
b1010110 J
b1010110 Z
#1800
b1010111 "
b1010111 J
b1010111 Z
#1814
b1011000 "
b1011000 J
b1011000 Z
#1823
b1011010 "
b1011010 J
b1011010 Z
#1833
b1011011 "
b1011011 J
b1011011 Z
#1842
b1011100 "
b1011100 J
b1011100 Z
#1858
b1011101 "
b1011101 J
b1011101 Z
#1867
b1011110 "
b1011110 J
b1011110 Z
#1877
b1100000 "
b1100000 J
b1100000 Z
#1886
b1100001 "
b1100001 J
b1100001 Z
#1896
b1100010 "
b1100010 J
b1100010 Z
#1909
b1100011 "
b1100011 J
b1100011 Z
#1919
b1100101 "
b1100101 J
b1100101 Z
#1929
b1100110 "
b1100110 J
b1100110 Z
#1938
b1100111 "
b1100111 J
b1100111 Z
#1953
b1101110 "
b1101110 J
b1101110 Z
#1954
b1101000 "
b1101000 J
b1101000 Z
#1963
b1101001 "
b1101001 J
b1101001 Z
#1973
b1101010 "
b1101010 J
b1101010 Z
#1982
b1101011 "
b1101011 J
b1101011 Z
#1992
b1101100 "
b1101100 J
b1101100 Z
#2005
b1101110 "
b1101110 J
b1101110 Z
#2024
b1101111 "
b1101111 J
b1101111 Z
#2034
b1110001 "
b1110001 J
b1110001 Z
#2049
b1110010 "
b1110010 J
b1110010 Z
#2059
b1110011 "
b1110011 J
b1110011 Z
#2068
b1110100 "
b1110100 J
b1110100 Z
#2078
b1110101 "
b1110101 J
b1110101 Z
#2091
b1110110 "
b1110110 J
b1110110 Z
#2101
b1110111 "
b1110111 J
b1110111 Z
#2110
b1111001 "
b1111001 J
b1111001 Z
#2120
b1111010 "
b1111010 J
b1111010 Z
#2145
b1111100 "
b1111100 J
b1111100 Z
#2154
b1111101 "
b1111101 J
b1111101 Z
#2164
b1111110 "
b1111110 J
b1111110 Z
#2173
b11000000 "
b11000000 J
b11000000 Z
1b
#2196
b11000001 "
b11000001 J
b11000001 Z
#2206
b11000011 "
b11000011 J
b11000011 Z
#2215
b11000100 "
b11000100 J
b11000100 Z
#2225
b11000101 "
b11000101 J
b11000101 Z
#2240
b11000110 "
b11000110 J
b11000110 Z
#2250
b11000111 "
b11000111 J
b11000111 Z
#2259
b11001000 "
b11001000 J
b11001000 Z
#2269
b11001010 "
b11001010 J
b11001010 Z
#2282
b11001011 "
b11001011 J
b11001011 Z
#2292
b11001100 "
b11001100 J
b11001100 Z
#2301
b11001101 "
b11001101 J
b11001101 Z
#2311
b11001110 "
b11001110 J
b11001110 Z
#2322
b0 "
b0 J
b0 Z
0b
#2567
b10000 "
b10000 J
b10000 Z
#2833
b10001 "
b10001 J
b10001 Z
#2858
b10010 "
b10010 J
b10010 Z
#2868
b10011 "
b10011 J
b10011 Z
#2887
b10100 "
b10100 J
b10100 Z
#2900
b10101 "
b10101 J
b10101 Z
#2910
b10110 "
b10110 J
b10110 Z
#2919
b10111 "
b10111 J
b10111 Z
#2954
b11000 "
b11000 J
b11000 Z
#2963
b11001 "
b11001 J
b11001 Z
#2973
b11010 "
b11010 J
b11010 Z
#2996
b11011 "
b11011 J
b11011 Z
#3005
b11100 "
b11100 J
b11100 Z
#3015
b11101 "
b11101 J
b11101 Z
#3049
b11110 "
b11110 J
b11110 Z
#3059
b11111 "
b11111 J
b11111 Z
#3068
b100000 "
b100000 J
b100000 Z
#3078
b100001 "
b100001 J
b100001 Z
#3101
b100010 "
b100010 J
b100010 Z
#3110
b100011 "
b100011 J
b100011 Z
#3135
b100100 "
b100100 J
b100100 Z
#3158
b100101 "
b100101 J
b100101 Z
#3170
b100110 "
b100110 J
b100110 Z
#3181
b100111 "
b100111 J
b100111 Z
#3193
b101000 "
b101000 J
b101000 Z
#3216
b101001 "
b101001 J
b101001 Z
#3241
b101010 "
b101010 J
b101010 Z
#3250
b101011 "
b101011 J
b101011 Z
#3269
b101100 "
b101100 J
b101100 Z
#3283
b101101 "
b101101 J
b101101 Z
#3292
b101110 "
b101110 J
b101110 Z
#3302
b101111 "
b101111 J
b101111 Z
#3336
b110000 "
b110000 J
b110000 Z
#3346
b110001 "
b110001 J
b110001 Z
#3356
b110010 "
b110010 J
b110010 Z
#3379
b110011 "
b110011 J
b110011 Z
#3388
b110100 "
b110100 J
b110100 Z
#3398
b110101 "
b110101 J
b110101 Z
#3432
b110110 "
b110110 J
b110110 Z
#3442
b110111 "
b110111 J
b110111 Z
#3451
b111000 "
b111000 J
b111000 Z
#3461
b111001 "
b111001 J
b111001 Z
#3484
b111010 "
b111010 J
b111010 Z
#3493
b111011 "
b111011 J
b111011 Z
#3518
b111100 "
b111100 J
b111100 Z
#3537
b111101 "
b111101 J
b111101 Z
#3547
b111110 "
b111110 J
b111110 Z
#3560
b111111 "
b111111 J
b111111 Z
#3569
b100 "
b100 J
b100 Z
#3570
b10000000 "
b10000000 J
b10000000 Z
1b
#3589
b10000001 "
b10000001 J
b10000001 Z
#3613
b10000010 "
b10000010 J
b10000010 Z
#3623
b10000011 "
b10000011 J
b10000011 Z
#3642
b10000100 "
b10000100 J
b10000100 Z
#3655
b10000101 "
b10000101 J
b10000101 Z
#3665
b10000110 "
b10000110 J
b10000110 Z
#3675
b10000111 "
b10000111 J
b10000111 Z
#3709
b10001000 "
b10001000 J
b10001000 Z
#3718
b10001001 "
b10001001 J
b10001001 Z
#3728
b10001010 "
b10001010 J
b10001010 Z
#3751
b10001011 "
b10001011 J
b10001011 Z
#3761
b10001100 "
b10001100 J
b10001100 Z
#3770
b10001101 "
b10001101 J
b10001101 Z
#3805
b10001110 "
b10001110 J
b10001110 Z
#3814
b10001111 "
b10001111 J
b10001111 Z
#3824
b10010000 "
b10010000 J
b10010000 Z
#3833
b10010001 "
b10010001 J
b10010001 Z
#3856
b10010011 "
b10010011 J
b10010011 Z
#3857
b10010010 "
b10010010 J
b10010010 Z
#3866
b10010011 "
b10010011 J
b10010011 Z
#3891
b10010100 "
b10010100 J
b10010100 Z
#3910
b10010101 "
b10010101 J
b10010101 Z
#3920
b10010111 "
b10010111 J
b10010111 Z
#3929
b10011000 "
b10011000 J
b10011000 Z
#3943
b10011001 "
b10011001 J
b10011001 Z
#3952
b10011010 "
b10011010 J
b10011010 Z
#3962
b10011011 "
b10011011 J
b10011011 Z
#3987
b10011101 "
b10011101 J
b10011101 Z
#3996
b10011110 "
b10011110 J
b10011110 Z
#4006
b10011111 "
b10011111 J
b10011111 Z
#4015
b10100000 "
b10100000 J
b10100000 Z
#4025
b10100010 "
b10100010 J
b10100010 Z
#4038
b10100011 "
b10100011 J
b10100011 Z
#4048
b10100100 "
b10100100 J
b10100100 Z
#4057
b10100101 "
b10100101 J
b10100101 Z
#4067
b10100110 "
b10100110 J
b10100110 Z
#4082
b10101000 "
b10101000 J
b10101000 Z
#4092
b10101001 "
b10101001 J
b10101001 Z
#4101
b10101011 "
b10101011 J
b10101011 Z
#4124
b10101101 "
b10101101 J
b10101101 Z
#4134
b10101110 "
b10101110 J
b10101110 Z
#4143
b10101111 "
b10101111 J
b10101111 Z
#4153
b10110001 "
b10110001 J
b10110001 Z
#4178
b10110011 "
b10110011 J
b10110011 Z
#4187
b10110100 "
b10110100 J
b10110100 Z
#4197
b10110110 "
b10110110 J
b10110110 Z
#4208
b10110111 "
b10110111 J
b10110111 Z
#4220
b10111000 "
b10111000 J
b10111000 Z
#4231
b10111001 "
b10111001 J
b10111001 Z
#4243
b10111010 "
b10111010 J
b10111010 Z
#4256
b10111100 "
b10111100 J
b10111100 Z
#4268
b10111101 "
b10111101 J
b10111101 Z
#4279
b10111110 "
b10111110 J
b10111110 Z
#4290
b10111111 "
b10111111 J
b10111111 Z
#4302
b1000001 "
b1000001 J
b1000001 Z
0b
#4313
b1000010 "
b1000010 J
b1000010 Z
#4325
b1000100 "
b1000100 J
b1000100 Z
#4344
b1000101 "
b1000101 J
b1000101 Z
#4354
b1000111 "
b1000111 J
b1000111 Z
#4369
b1001000 "
b1001000 J
b1001000 Z
#4378
b1001010 "
b1001010 J
b1001010 Z
#4398
b1001100 "
b1001100 J
b1001100 Z
#4411
b1001101 "
b1001101 J
b1001101 Z
#4421
b1001111 "
b1001111 J
b1001111 Z
#4430
b1010000 "
b1010000 J
b1010000 Z
#4455
b1010010 "
b1010010 J
b1010010 Z
#4465
b1010011 "
b1010011 J
b1010011 Z
#4474
b1010101 "
b1010101 J
b1010101 Z
#4484
b1010110 "
b1010110 J
b1010110 Z
#4493
b1010111 "
b1010111 J
b1010111 Z
#4507
b1011000 "
b1011000 J
b1011000 Z
#4516
b1011010 "
b1011010 J
b1011010 Z
#4526
b1011011 "
b1011011 J
b1011011 Z
#4535
b1011110 "
b1011110 J
b1011110 Z
#4536
b1011100 "
b1011100 J
b1011100 Z
#4551
b1011101 "
b1011101 J
b1011101 Z
#4560
b1011110 "
b1011110 J
b1011110 Z
#4570
b1100000 "
b1100000 J
b1100000 Z
#4580
b1100001 "
b1100001 J
b1100001 Z
#4589
b1100010 "
b1100010 J
b1100010 Z
#4603
b1100011 "
b1100011 J
b1100011 Z
#4612
b1100101 "
b1100101 J
b1100101 Z
#4622
b1100110 "
b1100110 J
b1100110 Z
#4631
b1100111 "
b1100111 J
b1100111 Z
#4647
b1101000 "
b1101000 J
b1101000 Z
#4656
b1101001 "
b1101001 J
b1101001 Z
#4666
b1101010 "
b1101010 J
b1101010 Z
#4675
b1101011 "
b1101011 J
b1101011 Z
#4685
b1101100 "
b1101100 J
b1101100 Z
#4698
b1101110 "
b1101110 J
b1101110 Z
#4717
b1101111 "
b1101111 J
b1101111 Z
#4727
b1110001 "
b1110001 J
b1110001 Z
#4742
b1110010 "
b1110010 J
b1110010 Z
#4752
b1110011 "
b1110011 J
b1110011 Z
#4761
b1110100 "
b1110100 J
b1110100 Z
#4771
b1110101 "
b1110101 J
b1110101 Z
#4784
b1110110 "
b1110110 J
b1110110 Z
#4794
b1110111 "
b1110111 J
b1110111 Z
#4803
b1111001 "
b1111001 J
b1111001 Z
#4813
b1111010 "
b1111010 J
b1111010 Z
#4838
b1111100 "
b1111100 J
b1111100 Z
#4847
b1111101 "
b1111101 J
b1111101 Z
#4857
b1111110 "
b1111110 J
b1111110 Z
#4866
b11000000 "
b11000000 J
b11000000 Z
1b
#4889
b11000001 "
b11000001 J
b11000001 Z
#4899
b11000011 "
b11000011 J
b11000011 Z
#4908
b11000100 "
b11000100 J
b11000100 Z
#4918
b11000101 "
b11000101 J
b11000101 Z
#4933
b11000110 "
b11000110 J
b11000110 Z
#4943
b11000111 "
b11000111 J
b11000111 Z
#4952
b11001000 "
b11001000 J
b11001000 Z
#4962
b11001010 "
b11001010 J
b11001010 Z
#4975
b11001011 "
b11001011 J
b11001011 Z
#4985
b11001100 "
b11001100 J
b11001100 Z
#4994
b11001101 "
b11001101 J
b11001101 Z
#5004
b11001110 "
b11001110 J
b11001110 Z
#5015
b0 "
b0 J
b0 Z
0b
#5260
b10000 "
b10000 J
b10000 Z
#5526
b10001 "
b10001 J
b10001 Z
#5551
b10010 "
b10010 J
b10010 Z
#5561
b10011 "
b10011 J
b10011 Z
#5580
b10100 "
b10100 J
b10100 Z
#5593
b10101 "
b10101 J
b10101 Z
#5603
b10110 "
b10110 J
b10110 Z
#5612
b10111 "
b10111 J
b10111 Z
#5647
b11000 "
b11000 J
b11000 Z
#5656
b11001 "
b11001 J
b11001 Z
#5666
b11010 "
b11010 J
b11010 Z
#5689
b11011 "
b11011 J
b11011 Z
#5698
b11100 "
b11100 J
b11100 Z
#5708
b11101 "
b11101 J
b11101 Z
#5742
b11110 "
b11110 J
b11110 Z
#5752
b11111 "
b11111 J
b11111 Z
#5761
b100000 "
b100000 J
b100000 Z
#5771
b100001 "
b100001 J
b100001 Z
#5794
b100010 "
b100010 J
b100010 Z
#5803
b100011 "
b100011 J
b100011 Z
#5828
b100100 "
b100100 J
b100100 Z
#5851
b100101 "
b100101 J
b100101 Z
#5863
b100110 "
b100110 J
b100110 Z
#5874
b100111 "
b100111 J
b100111 Z
#5886
b101000 "
b101000 J
b101000 Z
#5909
b101001 "
b101001 J
b101001 Z
#5934
b101010 "
b101010 J
b101010 Z
#5943
b101011 "
b101011 J
b101011 Z
#5962
b101100 "
b101100 J
b101100 Z
#5976
b101101 "
b101101 J
b101101 Z
#5985
b101110 "
b101110 J
b101110 Z
#5995
b101111 "
b101111 J
b101111 Z
#6029
b111111 "
b111111 J
b111111 Z
#6030
b110000 "
b110000 J
b110000 Z
#6039
b110001 "
b110001 J
b110001 Z
#6049
b110010 "
b110010 J
b110010 Z
#6072
b110011 "
b110011 J
b110011 Z
#6081
b110100 "
b110100 J
b110100 Z
#6091
b110101 "
b110101 J
b110101 Z
#6125
b110110 "
b110110 J
b110110 Z
#6135
b110111 "
b110111 J
b110111 Z
#6144
b111000 "
b111000 J
b111000 Z
#6154
b111001 "
b111001 J
b111001 Z
#6177
b111010 "
b111010 J
b111010 Z
#6186
b111011 "
b111011 J
b111011 Z
#6211
b111100 "
b111100 J
b111100 Z
#6230
b111101 "
b111101 J
b111101 Z
#6240
b111110 "
b111110 J
b111110 Z
#6253
b111111 "
b111111 J
b111111 Z
#6263
b10000000 "
b10000000 J
b10000000 Z
1b
#6282
b10000001 "
b10000001 J
b10000001 Z
#6306
b10000011 "
b10000011 J
b10000011 Z
#6307
b10000010 "
b10000010 J
b10000010 Z
#6316
b10000011 "
b10000011 J
b10000011 Z
#6335
b10000100 "
b10000100 J
b10000100 Z
#6348
b10000101 "
b10000101 J
b10000101 Z
#6358
b10000110 "
b10000110 J
b10000110 Z
#6368
b10000111 "
b10000111 J
b10000111 Z
#6402
b10001000 "
b10001000 J
b10001000 Z
#6412
b10001001 "
b10001001 J
b10001001 Z
#6421
b10001010 "
b10001010 J
b10001010 Z
#6444
b10001011 "
b10001011 J
b10001011 Z
#6454
b10001100 "
b10001100 J
b10001100 Z
#6463
b10001101 "
b10001101 J
b10001101 Z
#6498
b10001110 "
b10001110 J
b10001110 Z
#6507
b10001111 "
b10001111 J
b10001111 Z
#6517
b10010000 "
b10010000 J
b10010000 Z
#6527
b10010001 "
b10010001 J
b10010001 Z
#6550
b10010010 "
b10010010 J
b10010010 Z
#6559
b10010011 "
b10010011 J
b10010011 Z
#6584
b10010100 "
b10010100 J
b10010100 Z
#6603
b10010101 "
b10010101 J
b10010101 Z
#6613
b10010111 "
b10010111 J
b10010111 Z
#6622
b10011000 "
b10011000 J
b10011000 Z
#6636
b10011001 "
b10011001 J
b10011001 Z
#6645
b10011010 "
b10011010 J
b10011010 Z
#6655
b10011011 "
b10011011 J
b10011011 Z
#6680
b10011101 "
b10011101 J
b10011101 Z
#6689
b10011110 "
b10011110 J
b10011110 Z
#6699
b10011111 "
b10011111 J
b10011111 Z
#6709
b10100000 "
b10100000 J
b10100000 Z
#6718
b10100010 "
b10100010 J
b10100010 Z
#6731
b10100011 "
b10100011 J
b10100011 Z
#6741
b10100100 "
b10100100 J
b10100100 Z
#6751
b10100101 "
b10100101 J
b10100101 Z
#6760
b10100110 "
b10100110 J
b10100110 Z
#6775
b10101000 "
b10101000 J
b10101000 Z
#6785
b10101001 "
b10101001 J
b10101001 Z
#6794
b10101011 "
b10101011 J
b10101011 Z
#6817
b10101101 "
b10101101 J
b10101101 Z
#6827
b10101110 "
b10101110 J
b10101110 Z
#6836
b10101111 "
b10101111 J
b10101111 Z
#6846
b10110001 "
b10110001 J
b10110001 Z
#6871
b10110011 "
b10110011 J
b10110011 Z
#6880
b10110100 "
b10110100 J
b10110100 Z
#6890
b10110110 "
b10110110 J
b10110110 Z
#6901
b10110111 "
b10110111 J
b10110111 Z
#6913
b10111000 "
b10111000 J
b10111000 Z
#6924
b10111001 "
b10111001 J
b10111001 Z
#6936
b10111010 "
b10111010 J
b10111010 Z
#6949
b10111100 "
b10111100 J
b10111100 Z
#6961
b10111101 "
b10111101 J
b10111101 Z
#6972
b10111110 "
b10111110 J
b10111110 Z
#6984
b10111111 "
b10111111 J
b10111111 Z
#6995
b1000001 "
b1000001 J
b1000001 Z
0b
#7007
b1000010 "
b1000010 J
b1000010 Z
#7018
b1000100 "
b1000100 J
b1000100 Z
#7037
b1000101 "
b1000101 J
b1000101 Z
#7047
b1000111 "
b1000111 J
b1000111 Z
#7062
b1001000 "
b1001000 J
b1001000 Z
#7071
b1001010 "
b1001010 J
b1001010 Z
#7091
b1001100 "
b1001100 J
b1001100 Z
#7104
b1001101 "
b1001101 J
b1001101 Z
#7114
b1001111 "
b1001111 J
b1001111 Z
#7123
b1010000 "
b1010000 J
b1010000 Z
#7148
b1010010 "
b1010010 J
b1010010 Z
#7158
b1010011 "
b1010011 J
b1010011 Z
#7167
b1010101 "
b1010101 J
b1010101 Z
#7177
b1010110 "
b1010110 J
b1010110 Z
#7186
b1010111 "
b1010111 J
b1010111 Z
#7200
b1011000 "
b1011000 J
b1011000 Z
#7209
b1011010 "
b1011010 J
b1011010 Z
#7219
b1011011 "
b1011011 J
b1011011 Z
#7229
b1011100 "
b1011100 J
b1011100 Z
#7244
b1011101 "
b1011101 J
b1011101 Z
#7253
b1011110 "
b1011110 J
b1011110 Z
#7263
b1100000 "
b1100000 J
b1100000 Z
#7273
b1100001 "
b1100001 J
b1100001 Z
#7282
b1100010 "
b1100010 J
b1100010 Z
#7296
b1100011 "
b1100011 J
b1100011 Z
#7305
b1100101 "
b1100101 J
b1100101 Z
#7315
b1100110 "
b1100110 J
b1100110 Z
#7324
b1100111 "
b1100111 J
b1100111 Z
#7340
b1101000 "
b1101000 J
b1101000 Z
#7349
b1101001 "
b1101001 J
b1101001 Z
#7359
b1101010 "
b1101010 J
b1101010 Z
#7368
b1101011 "
b1101011 J
b1101011 Z
#7378
b1101100 "
b1101100 J
b1101100 Z
#7391
b1101110 "
b1101110 J
b1101110 Z
#7410
b1101111 "
b1101111 J
b1101111 Z
#7420
b1110001 "
b1110001 J
b1110001 Z
#7435
b1110010 "
b1110010 J
b1110010 Z
#7445
b1110011 "
b1110011 J
b1110011 Z
#7454
b1110100 "
b1110100 J
b1110100 Z
#7464
b1110101 "
b1110101 J
b1110101 Z
#7477
b1110110 "
b1110110 J
b1110110 Z
#7487
b1110111 "
b1110111 J
b1110111 Z
#7496
b1111001 "
b1111001 J
b1111001 Z
#7506
b1111010 "
b1111010 J
b1111010 Z
#7531
b1111100 "
b1111100 J
b1111100 Z
#7540
b1111101 "
b1111101 J
b1111101 Z
#7550
b1111110 "
b1111110 J
b1111110 Z
#7559
b11000000 "
b11000000 J
b11000000 Z
1b
#7582
b11000001 "
b11000001 J
b11000001 Z
#7592
b11000011 "
b11000011 J
b11000011 Z
#7601
b11000111 "
b11000111 J
b11000111 Z
#7602
b11000100 "
b11000100 J
b11000100 Z
#7611
b11000101 "
b11000101 J
b11000101 Z
#7626
b11000110 "
b11000110 J
b11000110 Z
#7636
b11000111 "
b11000111 J
b11000111 Z
#7645
b11001000 "
b11001000 J
b11001000 Z
#7655
b11001010 "
b11001010 J
b11001010 Z
#7668
b11001011 "
b11001011 J
b11001011 Z
#7678
b11001100 "
b11001100 J
b11001100 Z
#7687
b11001101 "
b11001101 J
b11001101 Z
#7697
b11001110 "
b11001110 J
b11001110 Z
#7708
b10000000 "
b10000000 J
b10000000 Z
#7709
b0 "
b0 J
b0 Z
0b
#7954
b10000 "
b10000 J
b10000 Z
#8219
b10001 "
b10001 J
b10001 Z
#8244
b10010 "
b10010 J
b10010 Z
#8254
b10011 "
b10011 J
b10011 Z
#8273
b10100 "
b10100 J
b10100 Z
#8286
b10101 "
b10101 J
b10101 Z
#8296
b10110 "
b10110 J
b10110 Z
#8305
b10111 "
b10111 J
b10111 Z
#8340
b11000 "
b11000 J
b11000 Z
#8349
b11001 "
b11001 J
b11001 Z
#8359
b11010 "
b11010 J
b11010 Z
#8382
b11011 "
b11011 J
b11011 Z
#8391
b11100 "
b11100 J
b11100 Z
#8401
b11101 "
b11101 J
b11101 Z
#8435
b11110 "
b11110 J
b11110 Z
#8445
b11111 "
b11111 J
b11111 Z
#8454
b100000 "
b100000 J
b100000 Z
#8464
b100001 "
b100001 J
b100001 Z
#8487
b100010 "
b100010 J
b100010 Z
#8497
b100011 "
b100011 J
b100011 Z
#8521
b100111 "
b100111 J
b100111 Z
#8522
b100100 "
b100100 J
b100100 Z
#8544
b100101 "
b100101 J
b100101 Z
#8556
b100110 "
b100110 J
b100110 Z
#8567
b100111 "
b100111 J
b100111 Z
#8579
b101000 "
b101000 J
b101000 Z
#8602
b101001 "
b101001 J
b101001 Z
#8627
b101010 "
b101010 J
b101010 Z
#8636
b101011 "
b101011 J
b101011 Z
#8656
b101100 "
b101100 J
b101100 Z
#8669
b101101 "
b101101 J
b101101 Z
#8679
b101110 "
b101110 J
b101110 Z
#8688
b101111 "
b101111 J
b101111 Z
#8723
b110000 "
b110000 J
b110000 Z
#8732
b110001 "
b110001 J
b110001 Z
#8742
b110010 "
b110010 J
b110010 Z
#8765
b110011 "
b110011 J
b110011 Z
#8774
b110100 "
b110100 J
b110100 Z
#8784
b110101 "
b110101 J
b110101 Z
#8818
b110110 "
b110110 J
b110110 Z
#8828
b110111 "
b110111 J
b110111 Z
#8837
b111000 "
b111000 J
b111000 Z
#8847
b111001 "
b111001 J
b111001 Z
#8870
b111010 "
b111010 J
b111010 Z
#8879
b111011 "
b111011 J
b111011 Z
#8904
b111100 "
b111100 J
b111100 Z
#8923
b111101 "
b111101 J
b111101 Z
#8933
b111110 "
b111110 J
b111110 Z
#8946
b111111 "
b111111 J
b111111 Z
#8956
b10000000 "
b10000000 J
b10000000 Z
1b
#8975
b10000001 "
b10000001 J
b10000001 Z
#9000
b10000010 "
b10000010 J
b10000010 Z
#9009
b10000011 "
b10000011 J
b10000011 Z
#9028
b10000100 "
b10000100 J
b10000100 Z
#9042
b10000101 "
b10000101 J
b10000101 Z
#9051
b10000110 "
b10000110 J
b10000110 Z
#9061
b10000111 "
b10000111 J
b10000111 Z
#9095
b10001000 "
b10001000 J
b10001000 Z
#9105
b10001001 "
b10001001 J
b10001001 Z
#9114
b10001010 "
b10001010 J
b10001010 Z
#9137
b10001011 "
b10001011 J
b10001011 Z
#9147
b10001100 "
b10001100 J
b10001100 Z
#9156
b10001101 "
b10001101 J
b10001101 Z
#9191
b10001110 "
b10001110 J
b10001110 Z
#9200
b10001111 "
b10001111 J
b10001111 Z
#9210
b10010000 "
b10010000 J
b10010000 Z
#9220
b10010001 "
b10010001 J
b10010001 Z
#9243
b10010010 "
b10010010 J
b10010010 Z
#9252
b10010011 "
b10010011 J
b10010011 Z
#9277
b10010100 "
b10010100 J
b10010100 Z
#9296
b10010101 "
b10010101 J
b10010101 Z
#9306
b10010111 "
b10010111 J
b10010111 Z
#9315
b10011000 "
b10011000 J
b10011000 Z
#9329
b10011001 "
b10011001 J
b10011001 Z
#9338
b10011010 "
b10011010 J
b10011010 Z
#9348
b10011011 "
b10011011 J
b10011011 Z
#9373
b10011101 "
b10011101 J
b10011101 Z
#9382
b10011110 "
b10011110 J
b10011110 Z
#9392
b10011111 "
b10011111 J
b10011111 Z
